# 3ds Max Wavefront OBJ Exporter v0.97b - (c)2007 guruware
# File Created: 23.03.2016 16:29:52

mtllib Orithia_Shield04.mtl

#
# object Box01
#

v  -16.5398 18.1145 -2.3539
v  -19.1560 36.1787 -2.6244
v  -10.7510 35.1886 -0.7755
v  -10.5667 12.2070 -1.0401
v  -16.9090 18.1145 -0.2604
v  -10.9358 12.2070 1.0534
v  -11.1202 35.1886 1.3180
v  -19.5251 36.1787 -0.5309
v  -25.1691 52.5009 -1.2971
v  -24.8000 52.5009 -3.3906
v  -10.2288 51.9576 -0.4869
v  -5.0601 52.0243 -0.2464
v  -4.7597 34.1071 -0.3915
v  -4.6748 7.2967 1.5854
v  -4.9442 34.1073 1.7182
v  -4.4902 7.2975 -0.5242
v  -12.5108 62.3637 -1.0660
v  -12.8800 62.3637 1.0275
v  -12.6461 59.7194 1.1158
v  -12.2770 59.7194 -0.9777
v  -10.5979 51.9576 1.6066
v  -20.5132 55.1591 -2.1736
v  -10.1186 55.1502 -0.6776
v  -20.8823 55.1591 -0.0801
v  -10.4878 55.1502 1.4159
v  -5.2447 52.0237 1.8632
v  -5.1927 54.8632 1.7784
v  -10.0085 58.3429 -0.8684
v  -17.4147 58.3492 -1.4167
v  -17.7839 58.3492 0.6768
v  -10.3776 58.3429 1.2251
v  -4.9561 58.1632 -0.4160
v  -5.0081 54.8638 -0.3312
v  -0.0294 51.4019 -0.0123
v  -0.0294 32.2230 -0.0183
v  -0.0294 4.7737 2.1022
v  -0.0294 32.2212 2.1075
v  -0.0294 4.7782 -0.0238
v  -5.1407 58.1627 1.6936
v  -0.0294 51.4002 2.1133
v  -0.0294 53.8948 2.1320
v  -0.0294 57.0911 0.0252
v  -0.0294 53.8969 0.0063
v  -6.2916 13.1576 1.4330
v  -4.7885 13.6020 2.8753
v  -5.3383 17.4618 2.8753
v  -7.4515 19.6022 1.3897
v  -3.2847 13.8085 1.7192
v  -3.2839 15.6036 1.7192
v  -4.3439 10.4938 1.6024
v  -3.1172 11.3850 2.8753
v  -1.9585 12.1763 1.7192
v  -0.0294 7.3253 2.0377
v  -0.0294 8.8515 2.8376
v  -0.0294 9.5511 3.1971
v  -0.0294 11.2876 2.0410
v  -0.0294 57.0890 2.1509
v  16.4810 18.1145 -2.3539
v  10.5078 12.2070 -1.0401
v  10.6922 35.1886 -0.7755
v  19.0971 36.1787 -2.6244
v  16.8501 18.1145 -0.2604
v  19.4663 36.1787 -0.5309
v  11.0613 35.1886 1.3180
v  10.8770 12.2070 1.0534
v  24.7411 52.5009 -3.3906
v  25.1103 52.5009 -1.2971
v  10.1699 51.9576 -0.4869
v  4.7008 34.1071 -0.3915
v  5.0013 52.0243 -0.2464
v  4.8854 34.1073 1.7182
v  4.6160 7.2967 1.5854
v  4.4314 7.2975 -0.5242
v  12.4520 62.3637 -1.0660
v  12.2181 59.7194 -0.9777
v  12.5873 59.7194 1.1158
v  12.8211 62.3637 1.0275
v  10.5391 51.9576 1.6066
v  10.0598 55.1502 -0.6776
v  20.4544 55.1591 -2.1736
v  20.8235 55.1591 -0.0801
v  10.4289 55.1502 1.4159
v  5.1859 52.0237 1.8632
v  5.1338 54.8632 1.7784
v  17.3559 58.3492 -1.4167
v  9.9496 58.3429 -0.8684
v  17.7250 58.3492 0.6768
v  10.3188 58.3429 1.2251
v  4.9493 54.8638 -0.3312
v  4.8973 58.1632 -0.4160
v  5.0818 58.1627 1.6936
v  6.2328 13.1576 1.4330
v  7.3927 19.6022 1.3897
v  5.2795 17.4618 2.8753
v  4.7297 13.6020 2.8753
v  3.2250 15.6036 1.7192
v  3.2258 13.8085 1.7192
v  3.0584 11.3850 2.8753
v  4.2851 10.4938 1.6024
v  1.8997 12.1763 1.7192
v  -0.9947 41.5009 1.2034
v  -0.5463 42.0583 1.6518
v  -0.3037 42.0583 1.4897
v  -0.5463 41.5009 0.9039
v  -1.2943 41.5009 1.6518
v  -0.7085 42.0583 1.8944
v  -1.3995 41.5009 2.1807
v  -0.7654 42.0583 2.1807
v  -1.2943 41.5009 2.7095
v  -0.7085 42.0583 2.4669
v  -0.9947 41.5009 3.1579
v  -0.5463 42.0583 2.7095
v  -0.5463 41.5009 3.4574
v  -0.3037 42.0583 2.8716
v  -0.0294 41.5009 3.5603
v  -0.0294 42.0583 2.9262
v  -1.2943 40.6666 0.9039
v  -0.7085 40.6666 0.5124
v  -1.6857 40.6666 1.4897
v  -1.8231 40.6666 2.1807
v  -1.6857 40.6666 2.8716
v  -1.2943 40.6666 3.4574
v  -0.7085 40.6666 3.8489
v  -0.0294 40.6666 3.9839
v  -1.3995 39.6824 0.7987
v  -0.7654 39.6824 0.3750
v  -1.8231 39.6824 1.4327
v  -1.9719 39.6824 2.1807
v  -1.8231 39.6824 2.9286
v  -1.3995 39.6824 3.5626
v  -0.7654 39.6824 3.9863
v  -0.0294 39.6824 4.1327
v  -1.2943 38.6983 0.9039
v  -0.7085 38.6983 0.5124
v  -1.6857 38.6983 1.4897
v  -1.8231 38.6983 2.1807
v  -1.6857 38.6983 2.8716
v  -1.2943 38.6983 3.4574
v  -0.7085 38.6983 3.8489
v  -0.0294 38.6983 3.9839
v  -0.9947 37.8640 1.2034
v  -0.5463 37.8640 0.9039
v  -1.2943 37.8640 1.6518
v  -1.3995 37.8640 2.1807
v  -1.2943 37.8640 2.7095
v  -0.9947 37.8640 3.1579
v  -0.5463 37.8640 3.4574
v  -0.0294 37.8640 3.5603
v  -0.5463 37.3065 1.6518
v  -0.3037 37.3065 1.4897
v  -0.7085 37.3065 1.8944
v  -0.7654 37.3065 2.1807
v  -0.7085 37.3065 2.4669
v  -0.5463 37.3065 2.7095
v  -0.3037 37.3065 2.8716
v  -0.0294 37.3065 2.9262
v  -0.0294 42.0583 1.4351
v  -0.0294 42.2520 2.5857
v  -0.0294 42.2497 2.1687
v  -0.0294 42.2510 2.1807
v  -0.0294 42.2497 2.1926
v  -0.0294 41.5009 0.8010
v  -0.0294 40.6666 0.3774
v  -0.0294 39.6824 0.2286
v  -0.0294 38.6983 0.3774
v  -0.0294 37.8640 0.8010
v  -0.0294 37.3065 1.4351
v  -0.0294 37.1111 2.5857
v  -0.0294 37.1152 2.1687
v  -0.0294 37.1139 2.1807
v  -0.0294 37.1152 2.1926
v  0.9359 41.5009 1.2034
v  0.4875 41.5009 0.9039
v  0.2449 42.0583 1.4897
v  0.4875 42.0583 1.6518
v  1.2354 41.5009 1.6518
v  0.6496 42.0583 1.8944
v  1.3406 41.5009 2.1807
v  0.7066 42.0583 2.1807
v  1.2354 41.5009 2.7095
v  0.6496 42.0583 2.4669
v  0.9359 41.5009 3.1579
v  0.4875 42.0583 2.7095
v  0.4875 41.5009 3.4574
v  0.2449 42.0583 2.8716
v  1.2354 40.6666 0.9039
v  0.6496 40.6666 0.5124
v  1.6269 40.6666 1.4897
v  1.7643 40.6666 2.1807
v  1.6269 40.6666 2.8716
v  1.2354 40.6666 3.4574
v  0.6496 40.6666 3.8489
v  1.3406 39.6824 0.7987
v  0.7066 39.6824 0.3750
v  1.7643 39.6824 1.4327
v  1.9131 39.6824 2.1807
v  1.7643 39.6824 2.9286
v  1.3406 39.6824 3.5626
v  0.7066 39.6824 3.9863
v  1.2354 38.6983 0.9039
v  0.6496 38.6983 0.5124
v  1.6269 38.6983 1.4897
v  1.7643 38.6983 2.1807
v  1.6269 38.6983 2.8716
v  1.2354 38.6983 3.4574
v  0.6496 38.6983 3.8489
v  0.9359 37.8640 1.2034
v  0.4875 37.8640 0.9039
v  1.2354 37.8640 1.6518
v  1.3406 37.8640 2.1807
v  1.2354 37.8640 2.7095
v  0.9359 37.8640 3.1579
v  0.4875 37.8640 3.4574
v  0.4875 37.3065 1.6518
v  0.2449 37.3065 1.4897
v  0.6496 37.3065 1.8944
v  0.7066 37.3065 2.1807
v  0.6496 37.3065 2.4669
v  0.4875 37.3065 2.7095
v  0.2449 37.3065 2.8716
# 220 vertices

vn 0.2251 0.0138 -0.9742
vn 0.2175 0.0246 -0.9757
vn 0.1412 0.0160 -0.9898
vn 0.1235 0.0083 -0.9923
vn -0.2251 -0.0138 0.9742
vn -0.1236 -0.0083 0.9923
vn -0.1415 -0.0160 0.9898
vn -0.2175 -0.0246 0.9757
vn -0.6480 -0.7537 -0.1098
vn -0.6476 -0.7534 -0.1142
vn -0.8756 -0.4577 -0.1544
vn -0.8775 -0.4538 -0.1547
vn -0.9568 -0.2369 -0.1687
vn -0.9564 -0.2383 -0.1686
vn -0.9299 -0.3292 -0.1640
vn 0.1144 -0.0153 -0.9933
vn 0.0498 -0.0089 -0.9987
vn 0.0717 0.0077 -0.9974
vn -0.1023 -0.0023 0.9948
vn -0.0721 -0.0077 0.9974
vn -0.5585 -0.8280 -0.0492
vn -0.5551 -0.8304 -0.0484
vn 0.9806 0.0925 0.1729
vn 0.8434 0.5162 0.1487
vn 0.8284 0.5408 0.1461
vn 0.2014 0.0519 -0.9781
vn -0.1123 0.0176 0.9935
vn -0.2014 -0.0519 0.9781
vn 0.1806 0.1019 -0.9783
vn 0.0941 -0.0489 -0.9944
vn -0.5065 0.8576 -0.0893
vn -0.6105 0.7846 -0.1077
vn -0.6024 0.7911 -0.1062
vn -0.0918 0.0466 0.9947
vn -0.1806 -0.1019 0.9783
vn -0.0542 0.0117 0.9985
vn -0.0691 0.0257 0.9973
vn 0.0815 0.0136 -0.9966
vn 0.0794 -0.0466 -0.9958
vn 0.1200 0.0531 -0.9913
vn 0.0918 -0.0251 -0.9955
vn -0.6615 0.7409 -0.1166
vn -0.6622 0.7401 -0.1168
vn -0.6249 0.7729 -0.1102
vn -0.1200 -0.0531 0.9913
vn -0.0794 0.0466 0.9958
vn -0.0815 -0.0136 0.9966
vn -0.0918 0.0251 0.9955
vn 0.2981 0.9531 0.0526
vn 0.2677 0.9624 0.0468
vn 0.0780 -0.0336 -0.9964
vn 0.0651 -0.0283 -0.9975
vn 0.0000 0.0075 -1.0000
vn 0.0000 0.0034 -1.0000
vn 0.0000 -0.0002 1.0000
vn -0.0000 -0.0033 1.0000
vn -0.0000 -0.9999 -0.0132
vn 0.0000 -1.0000 -0.0022
vn 0.1228 0.9924 0.0092
vn 0.1235 0.9923 0.0111
vn 0.1030 0.0022 -0.9947
vn -0.0000 -0.0075 1.0000
vn 0.0000 -0.0003 1.0000
vn 0.0000 -0.0058 -1.0000
vn 0.0000 0.0001 -1.0000
vn -0.0783 0.0334 0.9964
vn -0.6321 -0.2317 0.7395
vn -0.6209 -0.2481 0.7436
vn -0.6504 -0.1079 0.7519
vn -0.6443 -0.1109 0.7567
vn 0.5613 0.1965 0.8040
vn 0.5696 0.2208 0.7917
vn 0.5650 0.0510 0.8235
vn 0.5410 0.0771 0.8375
vn -0.4778 -0.4335 0.7641
vn -0.4489 -0.4688 0.7608
vn 0.4181 0.5060 0.7545
vn 0.3601 0.5216 0.7735
vn -0.3961 -0.4242 0.8144
vn 1.0000 0.0000 -0.0000
vn -0.2762 -0.4823 0.8313
vn 0.0000 0.6012 0.7991
vn 0.0000 0.5542 0.8324
vn 0.6884 0.7226 0.0619
vn -0.0000 1.0000 0.0053
vn 0.0000 1.0000 0.0010
vn 0.0000 0.0002 -1.0000
vn 0.0000 0.0054 1.0000
vn -0.2251 0.0138 -0.9742
vn -0.1235 0.0083 -0.9923
vn -0.1412 0.0160 -0.9898
vn -0.2175 0.0246 -0.9757
vn 0.2251 -0.0138 0.9742
vn 0.2175 -0.0246 0.9757
vn 0.1415 -0.0160 0.9898
vn 0.1236 -0.0083 0.9923
vn 0.6480 -0.7537 -0.1098
vn 0.8775 -0.4538 -0.1547
vn 0.8756 -0.4577 -0.1544
vn 0.6476 -0.7534 -0.1142
vn 0.9568 -0.2369 -0.1687
vn 0.9299 -0.3292 -0.1640
vn 0.9564 -0.2383 -0.1686
vn -0.1144 -0.0153 -0.9933
vn -0.0717 0.0077 -0.9974
vn -0.0498 -0.0089 -0.9987
vn 0.0721 -0.0077 0.9974
vn 0.1023 -0.0023 0.9948
vn 0.5551 -0.8304 -0.0484
vn 0.5585 -0.8280 -0.0492
vn -0.9806 0.0925 0.1729
vn -0.8284 0.5408 0.1461
vn -0.8434 0.5162 0.1487
vn -0.2014 0.0519 -0.9781
vn 0.2014 -0.0519 0.9781
vn 0.1123 0.0176 0.9935
vn -0.0941 -0.0489 -0.9944
vn -0.1806 0.1019 -0.9783
vn 0.5065 0.8576 -0.0893
vn 0.6024 0.7911 -0.1062
vn 0.6105 0.7846 -0.1077
vn 0.1806 -0.1019 0.9783
vn 0.0918 0.0466 0.9947
vn 0.0542 0.0117 0.9985
vn 0.0691 0.0257 0.9973
vn -0.0815 0.0136 -0.9966
vn -0.0918 -0.0251 -0.9955
vn -0.1200 0.0531 -0.9913
vn -0.0794 -0.0466 -0.9958
vn 0.6615 0.7409 -0.1166
vn 0.6249 0.7729 -0.1102
vn 0.6622 0.7401 -0.1168
vn 0.1200 -0.0531 0.9913
vn 0.0918 0.0251 0.9955
vn 0.0815 -0.0136 0.9966
vn 0.0794 0.0466 0.9958
vn -0.2981 0.9531 0.0526
vn -0.2677 0.9624 0.0468
vn -0.0651 -0.0283 -0.9975
vn -0.0780 -0.0336 -0.9964
vn -0.1235 0.9923 0.0111
vn -0.1228 0.9924 0.0092
vn -0.1030 0.0022 -0.9947
vn 0.0783 0.0334 0.9964
vn 0.6321 -0.2317 0.7395
vn 0.6443 -0.1109 0.7567
vn 0.6504 -0.1079 0.7519
vn 0.6209 -0.2481 0.7436
vn -0.5613 0.1965 0.8040
vn -0.5410 0.0771 0.8375
vn -0.5650 0.0510 0.8235
vn -0.5696 0.2208 0.7917
vn 0.4489 -0.4688 0.7608
vn 0.4778 -0.4335 0.7641
vn -0.3601 0.5216 0.7735
vn -0.4181 0.5060 0.7545
vn 0.3941 -0.4246 0.8151
vn -0.6884 0.7226 0.0619
vn -0.5647 0.6018 -0.5647
vn -0.3278 0.8811 -0.3410
vn -0.1743 0.8888 -0.4239
vn -0.3056 0.6018 -0.7379
vn -0.7379 0.6018 -0.3056
vn -0.4518 0.8729 -0.1843
vn -0.7987 0.6018 -0.0000
vn -0.4852 0.8744 -0.0025
vn -0.7379 0.6018 0.3056
vn -0.4698 0.8637 0.1823
vn -0.5647 0.6018 0.5647
vn -0.3593 0.8543 0.3756
vn -0.3056 0.6018 0.7379
vn -0.2307 0.8478 0.4776
vn 0.0000 0.6018 0.7987
vn -0.0000 0.8084 0.5887
vn -0.6747 0.2994 -0.6747
vn -0.3651 0.2994 -0.8815
vn -0.8815 0.2994 -0.3651
vn -0.9541 0.2994 -0.0000
vn -0.8815 0.2994 0.3651
vn -0.6747 0.2994 0.6747
vn -0.3651 0.2994 0.8815
vn -0.0000 0.2994 0.9541
vn -0.7071 0.0000 -0.7071
vn -0.3827 0.0000 -0.9239
vn -0.9239 0.0000 -0.3827
vn -1.0000 0.0000 -0.0000
vn -0.9239 -0.0000 0.3827
vn -0.7071 -0.0000 0.7071
vn -0.3827 0.0000 0.9239
vn -0.0000 0.0000 1.0000
vn -0.6747 -0.2994 -0.6747
vn -0.3651 -0.2994 -0.8815
vn -0.8815 -0.2994 -0.3651
vn -0.9541 -0.2994 -0.0000
vn -0.8815 -0.2994 0.3651
vn -0.6747 -0.2994 0.6747
vn -0.3651 -0.2994 0.8815
vn -0.0000 -0.2994 0.9541
vn -0.5647 -0.6018 -0.5647
vn -0.3056 -0.6018 -0.7379
vn -0.7379 -0.6018 -0.3056
vn -0.7987 -0.6018 -0.0000
vn -0.7379 -0.6018 0.3056
vn -0.5647 -0.6018 0.5647
vn -0.3056 -0.6018 0.7379
vn 0.0000 -0.6018 0.7987
vn -0.3281 -0.8809 -0.3411
vn -0.1745 -0.8885 -0.4244
vn -0.4520 -0.8727 -0.1846
vn -0.4857 -0.8741 -0.0023
vn -0.4703 -0.8635 0.1821
vn -0.3596 -0.8538 0.3764
vn -0.2313 -0.8474 0.4779
vn -0.0000 -0.8074 0.5900
vn 0.0000 0.8897 -0.4566
vn 0.0000 0.9918 0.1274
vn 0.9193 0.2955 -0.2601
vn -0.7532 -0.2033 0.6255
vn -0.3692 -0.1751 0.9127
vn -0.0000 0.6018 -0.7987
vn 0.0000 0.2994 -0.9541
vn 0.0000 0.0000 -1.0000
vn 0.0000 -0.2994 -0.9541
vn -0.0000 -0.6018 -0.7987
vn -0.0000 -0.8894 -0.4572
vn -0.0000 -0.9918 0.1274
vn 0.9202 -0.2920 -0.2607
vn -0.7535 0.2013 0.6259
vn -0.3692 0.1735 0.9130
vn 0.5647 0.6018 -0.5647
vn 0.3056 0.6018 -0.7379
vn 0.1743 0.8888 -0.4239
vn 0.3278 0.8811 -0.3410
vn 0.7379 0.6018 -0.3056
vn 0.4518 0.8729 -0.1843
vn 0.7987 0.6018 -0.0000
vn 0.4852 0.8744 -0.0025
vn 0.7379 0.6018 0.3056
vn 0.4698 0.8637 0.1823
vn 0.5647 0.6018 0.5647
vn 0.3593 0.8543 0.3756
vn 0.3056 0.6018 0.7379
vn 0.2307 0.8478 0.4776
vn 0.6747 0.2994 -0.6747
vn 0.3651 0.2994 -0.8815
vn 0.8815 0.2994 -0.3651
vn 0.9541 0.2994 -0.0000
vn 0.8815 0.2994 0.3651
vn 0.6747 0.2994 0.6747
vn 0.3651 0.2994 0.8815
vn 0.7071 0.0000 -0.7071
vn 0.3827 0.0000 -0.9239
vn 0.9239 -0.0000 -0.3827
vn 1.0000 -0.0000 -0.0000
vn 0.9239 -0.0000 0.3827
vn 0.7071 -0.0000 0.7071
vn 0.3827 0.0000 0.9239
vn 0.6747 -0.2994 -0.6747
vn 0.3651 -0.2994 -0.8815
vn 0.8815 -0.2994 -0.3651
vn 0.9541 -0.2994 -0.0000
vn 0.8815 -0.2994 0.3651
vn 0.6747 -0.2994 0.6747
vn 0.3651 -0.2994 0.8815
vn 0.5647 -0.6018 -0.5647
vn 0.3056 -0.6018 -0.7379
vn 0.7379 -0.6018 -0.3056
vn 0.7987 -0.6018 -0.0000
vn 0.7379 -0.6018 0.3056
vn 0.5647 -0.6018 0.5647
vn 0.3056 -0.6018 0.7379
vn 0.3281 -0.8809 -0.3411
vn 0.1745 -0.8885 -0.4244
vn 0.4520 -0.8727 -0.1846
vn 0.4857 -0.8741 -0.0023
vn 0.4703 -0.8635 0.1821
vn 0.3596 -0.8538 0.3764
vn 0.2313 -0.8474 0.4779
vn -0.9193 0.2955 -0.2601
vn 0.7532 -0.2033 0.6255
vn 0.3692 -0.1751 0.9127
vn -0.9202 -0.2920 -0.2607
vn 0.7535 0.2013 0.6259
vn 0.3692 0.1735 0.9130
# 284 vertex normals

vt 0.8464 0.3017 0.1571
vt 0.8917 0.5430 0.1162
vt 0.7462 0.5298 0.3955
vt 0.7430 0.2228 0.3555
vt 0.2247 0.2786 0.4733
vt 0.3281 0.1957 0.6717
vt 0.3249 0.5183 0.7117
vt 0.1794 0.5322 0.4324
vt 0.0320 0.1809 0.5776
vt 0.0559 0.1818 0.5630
vt 0.0515 0.2311 0.3269
vt 0.0270 0.2304 0.3415
vt 0.0258 0.3834 0.2381
vt 0.0496 0.3837 0.2236
vt 0.0501 0.5349 0.0005
vt 0.0266 0.5348 0.0151
vt 0.7371 0.7537 0.4391
vt 0.6476 0.7546 0.4754
vt 0.6424 0.5153 0.4535
vt 0.4364 0.1267 0.7521
vt 0.4318 0.5031 0.7721
vt 0.0297 0.1263 0.8178
vt 0.0531 0.1260 0.8105
vt 0.0269 0.6717 0.5008
vt 0.0509 0.6712 0.4862
vt 0.0525 0.7078 0.4954
vt 0.0287 0.7089 0.5100
vt 0.9894 0.7610 0.0005
vt 0.3339 0.7537 0.7553
vt 0.0817 0.7613 0.3167
vt 0.9151 0.7965 0.1843
vt 0.7352 0.7964 0.4103
vt 0.0542 0.5680 0.1699
vt 0.0304 0.5680 0.1845
vt 0.3358 0.7985 0.7265
vt 0.1559 0.7986 0.5005
vt 0.4266 0.7546 0.7941
vt 0.4275 0.7945 0.7812
vt 0.7726 0.8574 0.3649
vt 0.7333 0.8390 0.3815
vt 0.8615 0.8391 0.2986
vt 0.7766 0.8927 0.3516
vt 0.0318 0.6049 0.3070
vt 0.0560 0.6047 0.2924
vt 0.2095 0.8434 0.6148
vt 0.3377 0.8433 0.6977
vt 0.2985 0.8627 0.6812
vt 0.2944 0.8998 0.6678
vt 0.0516 0.7495 0.9298
vt 0.0279 0.7513 0.9298
vt 0.6458 0.8366 0.4498
vt 0.6467 0.7925 0.4626
vt 0.5606 0.7463 0.5108
vt 0.5606 0.4902 0.5099
vt 0.5169 0.0913 0.8301
vt 0.5169 0.4766 0.8309
vt 0.0308 0.0828 0.9940
vt 0.0544 0.0812 0.9940
vt 0.0522 0.8166 0.9267
vt 0.0287 0.8168 0.9267
vt 0.6378 0.1573 0.4334
vt 0.5169 0.7459 0.8318
vt 0.5169 0.7809 0.8346
vt 0.5606 0.8223 0.5164
vt 0.5606 0.7796 0.5136
vt 0.4284 0.8408 0.7684
vt 0.7912 0.1588 0.7253
vt 0.8165 0.1533 0.9495
vt 0.8108 0.1829 0.9495
vt 0.7755 0.2139 0.7186
vt 0.8318 0.1626 0.7698
vt 0.8344 0.1976 0.7698
vt 0.8174 0.1206 0.7516
vt 0.8367 0.1380 0.9495
vt 0.8529 0.1511 0.7698
vt 0.8767 0.1054 0.8193
vt 0.8755 0.1213 0.9436
vt 0.8748 0.1284 0.9995
vt 0.8754 0.1477 0.8198
vt 0.0299 0.8755 0.9082
vt 0.0531 0.8771 0.9081
vt 0.5606 0.1236 0.5090
vt 0.5169 0.8257 0.8375
vt 0.1543 0.1865 0.2407
vt 0.1719 0.1979 0.3596
vt 0.1814 0.1979 0.3166
vt 0.1719 0.1865 0.1612
vt 0.1425 0.1865 0.3596
vt 0.1655 0.1979 0.4240
vt 0.1384 0.1865 0.5000
vt 0.1633 0.1979 0.5000
vt 0.1425 0.1865 0.6404
vt 0.1655 0.1979 0.5760
vt 0.1543 0.1865 0.7593
vt 0.1719 0.1979 0.6404
vt 0.1719 0.1865 0.8388
vt 0.1814 0.1979 0.6834
vt 0.1922 0.1865 0.8661
vt 0.1922 0.1979 0.6979
vt 0.1425 0.1693 0.1612
vt 0.1655 0.1693 0.0573
vt 0.1272 0.1693 0.3166
vt 0.1218 0.1693 0.5000
vt 0.1272 0.1693 0.6834
vt 0.1425 0.1693 0.8388
vt 0.1655 0.1693 0.9427
vt 0.1922 0.1693 0.9786
vt 0.1384 0.1491 0.1332
vt 0.1633 0.1491 0.0208
vt 0.1218 0.1491 0.3015
vt 0.1160 0.1491 0.5000
vt 0.1218 0.1491 0.6985
vt 0.1384 0.1491 0.8668
vt 0.1633 0.1491 0.9792
vt 0.1922 0.1491 1.0181
vt 0.1425 0.1289 0.1612
vt 0.1655 0.1289 0.0573
vt 0.1272 0.1289 0.3166
vt 0.1218 0.1289 0.5000
vt 0.1272 0.1289 0.6834
vt 0.1425 0.1289 0.8388
vt 0.1655 0.1289 0.9427
vt 0.1922 0.1289 0.9786
vt 0.1543 0.1118 0.2407
vt 0.1719 0.1118 0.1612
vt 0.1425 0.1118 0.3596
vt 0.1384 0.1118 0.5000
vt 0.1425 0.1118 0.6404
vt 0.1543 0.1118 0.7593
vt 0.1719 0.1118 0.8388
vt 0.1922 0.1118 0.8661
vt 0.1719 0.1003 0.3596
vt 0.1814 0.1003 0.3166
vt 0.1655 0.1003 0.4240
vt 0.1633 0.1003 0.5000
vt 0.1655 0.1003 0.5760
vt 0.1719 0.1003 0.6404
vt 0.1814 0.1003 0.6834
vt 0.1922 0.1003 0.6979
vt 0.1922 0.1979 0.3021
vt 0.1922 0.2018 0.4924
vt 0.1922 0.2018 0.4968
vt 0.1922 0.2019 0.4987
vt 0.1922 0.2019 0.5000
vt 0.1922 0.2019 0.5013
vt 0.1922 0.2018 0.5032
vt 0.1922 0.2018 0.5076
vt 0.1922 0.1865 0.1339
vt 0.1922 0.1693 0.0214
vt 0.1922 0.1491 -0.0181
vt 0.1922 0.1289 0.0214
vt 0.1922 0.1118 0.1339
vt 0.1922 0.1003 0.3021
vt 0.1922 0.0965 0.4924
vt 0.1922 0.0964 0.4968
vt 0.1922 0.0964 0.4987
vt 0.1922 0.0963 0.5000
vt 0.1922 0.0964 0.5013
vt 0.1922 0.0964 0.5032
vt 0.1922 0.0965 0.5076
# 160 texture coords

g Box01
usemtl 01___Default
s 4
f 1/1/1 2/2/2 3/3/3 4/4/4 
f 5/5/5 6/6/6 7/7/7 8/8/8 
s 1
f 4/9/9 6/10/10 5/11/11 1/12/12 
f 2/13/13 8/14/14 9/15/15 10/16/15 
s 4
f 11/17/16 12/18/17 13/19/18 3/3/3 
f 6/6/6 14/20/19 15/21/20 7/7/7 
s 1
f 4/9/9 16/22/21 14/23/22 6/10/10 
f 17/24/23 18/25/23 19/26/24 20/27/25 
s 4
f 10/28/26 11/17/16 3/3/3 2/2/2 
f 7/7/7 21/29/27 9/30/28 8/8/8 
s 1
f 1/12/12 5/11/11 8/14/14 2/13/13 
s 4
f 11/17/16 10/28/26 22/31/29 23/32/30 
s 2
f 9/15/31 24/33/32 22/34/33 10/16/31 
s 4
f 21/29/27 25/35/34 24/36/35 9/30/28 
f 26/37/36 27/38/37 25/35/34 21/29/27 
f 20/39/38 28/40/39 29/41/40 17/42/41 
s 2
f 29/43/42 30/44/43 18/25/44 17/24/44 
s 4
f 30/45/45 31/46/46 19/47/47 18/48/48 
s 1
f 31/49/49 28/50/50 20/27/25 19/26/24 
s 4
f 29/41/40 28/40/39 23/32/30 22/31/29 
s 2
f 24/33/32 30/44/43 29/43/42 22/34/33 
s 4
f 25/35/34 31/46/46 30/45/45 24/36/35 
f 23/32/30 28/40/39 32/51/51 33/52/52 
f 34/53/53 35/54/54 13/19/18 12/18/17 
f 14/20/19 36/55/55 37/56/56 15/21/20 
s 1
f 38/57/57 36/58/58 14/23/22 16/22/21 
f 28/50/50 31/49/49 39/59/59 32/60/60 
s 4
f 4/4/4 3/3/3 13/19/18 16/61/61 
f 21/29/27 7/7/7 15/21/20 26/37/36 
f 11/17/16 23/32/30 33/52/52 12/18/17 
f 26/37/36 40/62/62 41/63/63 27/38/37 
f 42/64/64 43/65/65 33/52/52 32/51/51 
f 39/66/66 31/46/46 25/35/34 27/38/37 
s 1
f 44/67/67 45/68/68 46/69/69 47/70/70 
s 2
f 45/68/71 48/71/72 49/72/73 46/69/74 
s 1
f 45/68/68 44/67/67 50/73/75 51/74/76 
s 2
f 48/71/72 45/68/71 51/74/77 52/75/78 
s 1
f 53/76/79 54/77/80 55/78/81 50/73/75 
f 51/74/76 50/73/75 55/78/81 
s 2
f 52/75/78 51/74/77 55/78/82 56/79/83 
s 4
f 46/69/84 49/72/84 47/70/84 
s 1
f 42/80/85 32/60/60 39/59/59 57/81/86 
s 4
f 16/61/61 13/19/18 35/54/54 38/82/87 
f 40/62/62 26/37/36 15/21/20 37/56/56 
f 12/18/17 33/52/52 43/65/65 34/53/53 
f 57/83/88 39/66/66 27/38/37 41/63/63 
f 58/1/89 59/4/90 60/3/91 61/2/92 
f 62/5/93 63/8/94 64/7/95 65/6/96 
s 1
f 59/9/97 58/12/98 62/11/99 65/10/100 
f 61/13/101 66/16/102 67/15/102 63/14/103 
s 4
f 68/17/104 60/3/91 69/19/105 70/18/106 
f 65/6/96 64/7/95 71/21/107 72/20/108 
s 1
f 59/9/97 65/10/100 72/23/109 73/22/110 
f 74/24/111 75/27/112 76/26/113 77/25/111 
s 4
f 66/28/114 61/2/92 60/3/91 68/17/104 
f 64/7/95 63/8/94 67/30/115 78/29/116 
s 1
f 58/12/98 61/13/101 63/14/103 62/11/99 
s 4
f 68/17/104 79/32/117 80/31/118 66/28/114 
s 2
f 67/15/119 66/16/119 80/34/120 81/33/121 
s 4
f 78/29/116 67/30/115 81/36/122 82/35/123 
f 83/37/124 78/29/116 82/35/123 84/38/125 
f 75/39/126 74/42/127 85/41/128 86/40/129 
s 2
f 85/43/130 74/24/131 77/25/131 87/44/132 
s 4
f 87/45/133 77/48/134 76/47/135 88/46/136 
s 1
f 88/49/137 76/26/113 75/27/112 86/50/138 
s 4
f 85/41/128 80/31/118 79/32/117 86/40/129 
s 2
f 81/33/121 80/34/120 85/43/130 87/44/132 
s 4
f 82/35/123 81/36/122 87/45/133 88/46/136 
f 79/32/117 89/52/139 90/51/140 86/40/129 
f 34/53/53 70/18/106 69/19/105 35/54/54 
f 72/20/108 71/21/107 37/56/56 36/55/55 
s 1
f 38/57/57 73/22/110 72/23/109 36/58/58 
f 86/50/138 90/60/141 91/59/142 88/49/137 
s 4
f 59/4/90 73/61/143 69/19/105 60/3/91 
f 78/29/116 83/37/124 71/21/107 64/7/95 
f 68/17/104 70/18/106 89/52/139 79/32/117 
f 83/37/124 84/38/125 41/63/63 40/62/62 
f 42/64/64 90/51/140 89/52/139 43/65/65 
f 91/66/144 84/38/125 82/35/123 88/46/136 
s 1
f 92/67/145 93/70/146 94/69/147 95/68/148 
s 2
f 95/68/149 94/69/150 96/72/151 97/71/152 
s 1
f 95/68/148 98/74/153 99/73/154 92/67/145 
s 2
f 97/71/152 100/75/155 98/74/156 95/68/149 
s 1
f 55/78/80 54/77/80 53/76/80 
f 55/78/157 53/76/157 99/73/154 
f 98/74/153 55/78/81 99/73/154 
s 2
f 100/75/155 56/79/83 55/78/82 98/74/156 
s 4
f 94/69/158 93/70/158 96/72/158 
s 1
f 42/80/85 57/81/86 91/59/142 90/60/141 
s 4
f 73/61/143 38/82/87 35/54/54 69/19/105 
f 40/62/62 37/56/56 71/21/107 83/37/124 
f 70/18/106 34/53/53 43/65/65 89/52/139 
f 57/83/88 41/63/63 84/38/125 91/66/144 
s 1
f 101/84/159 102/85/160 103/86/161 104/87/162 
f 105/88/163 106/89/164 102/85/160 101/84/159 
f 107/90/165 108/91/166 106/89/164 105/88/163 
f 109/92/167 110/93/168 108/91/166 107/90/165 
f 111/94/169 112/95/170 110/93/168 109/92/167 
f 113/96/171 114/97/172 112/95/170 111/94/169 
f 113/96/171 115/98/173 116/99/174 114/97/172 
f 117/100/175 101/84/159 104/87/162 118/101/176 
f 119/102/177 105/88/163 101/84/159 117/100/175 
f 120/103/178 107/90/165 105/88/163 119/102/177 
f 121/104/179 109/92/167 107/90/165 120/103/178 
f 122/105/180 111/94/169 109/92/167 121/104/179 
f 123/106/181 113/96/171 111/94/169 122/105/180 
f 123/106/181 124/107/182 115/98/173 113/96/171 
f 125/108/183 117/100/175 118/101/176 126/109/184 
f 127/110/185 119/102/177 117/100/175 125/108/183 
f 128/111/186 120/103/178 119/102/177 127/110/185 
f 129/112/187 121/104/179 120/103/178 128/111/186 
f 130/113/188 122/105/180 121/104/179 129/112/187 
f 131/114/189 123/106/181 122/105/180 130/113/188 
f 131/114/189 132/115/190 124/107/182 123/106/181 
f 133/116/191 125/108/183 126/109/184 134/117/192 
f 135/118/193 127/110/185 125/108/183 133/116/191 
f 136/119/194 128/111/186 127/110/185 135/118/193 
f 137/120/195 129/112/187 128/111/186 136/119/194 
f 138/121/196 130/113/188 129/112/187 137/120/195 
f 139/122/197 131/114/189 130/113/188 138/121/196 
f 139/122/197 140/123/198 132/115/190 131/114/189 
f 141/124/199 133/116/191 134/117/192 142/125/200 
f 143/126/201 135/118/193 133/116/191 141/124/199 
f 144/127/202 136/119/194 135/118/193 143/126/201 
f 145/128/203 137/120/195 136/119/194 144/127/202 
f 146/129/204 138/121/196 137/120/195 145/128/203 
f 147/130/205 139/122/197 138/121/196 146/129/204 
f 147/130/205 148/131/206 140/123/198 139/122/197 
f 149/132/207 141/124/199 142/125/200 150/133/208 
f 151/134/209 143/126/201 141/124/199 149/132/207 
f 152/135/210 144/127/202 143/126/201 151/134/209 
f 153/136/211 145/128/203 144/127/202 152/135/210 
f 154/137/212 146/129/204 145/128/203 153/136/211 
f 155/138/213 147/130/205 146/129/204 154/137/212 
f 155/138/213 156/139/214 148/131/206 147/130/205 
f 157/140/215 103/86/161 158/141/216 
f 158/141/216 103/86/161 102/85/160 159/142/217 
f 159/142/217 102/85/160 106/89/164 158/143/216 
f 158/143/216 106/89/164 108/91/166 160/144/218 
f 160/144/218 108/91/166 110/93/168 158/145/216 
f 158/145/216 110/93/168 112/95/170 161/146/219 
f 161/146/219 112/95/170 114/97/172 158/147/216 
f 158/147/216 114/97/172 116/99/174 
f 104/87/162 103/86/161 157/140/215 162/148/220 
f 118/101/176 104/87/162 162/148/220 163/149/221 
f 126/109/184 118/101/176 163/149/221 164/150/222 
f 134/117/192 126/109/184 164/150/222 165/151/223 
f 142/125/200 134/117/192 165/151/223 166/152/224 
f 150/133/208 142/125/200 166/152/224 167/153/225 
f 168/154/226 150/133/208 167/153/225 
f 168/154/226 169/155/227 149/132/207 150/133/208 
f 169/155/227 168/156/226 151/134/209 149/132/207 
f 168/156/226 170/157/228 152/135/210 151/134/209 
f 170/157/228 168/158/226 153/136/211 152/135/210 
f 168/158/226 171/159/229 154/137/212 153/136/211 
f 171/159/229 168/160/226 155/138/213 154/137/212 
f 156/139/214 155/138/213 168/160/226 
f 172/84/230 173/87/231 174/86/232 175/85/233 
f 176/88/234 172/84/230 175/85/233 177/89/235 
f 178/90/236 176/88/234 177/89/235 179/91/237 
f 180/92/238 178/90/236 179/91/237 181/93/239 
f 182/94/240 180/92/238 181/93/239 183/95/241 
f 184/96/242 182/94/240 183/95/241 185/97/243 
f 184/96/242 185/97/243 116/99/174 115/98/173 
f 186/100/244 187/101/245 173/87/231 172/84/230 
f 188/102/246 186/100/244 172/84/230 176/88/234 
f 189/103/247 188/102/246 176/88/234 178/90/236 
f 190/104/248 189/103/247 178/90/236 180/92/238 
f 191/105/249 190/104/248 180/92/238 182/94/240 
f 192/106/250 191/105/249 182/94/240 184/96/242 
f 192/106/250 184/96/242 115/98/173 124/107/182 
f 193/108/251 194/109/252 187/101/245 186/100/244 
f 195/110/253 193/108/251 186/100/244 188/102/246 
f 196/111/254 195/110/253 188/102/246 189/103/247 
f 197/112/255 196/111/254 189/103/247 190/104/248 
f 198/113/256 197/112/255 190/104/248 191/105/249 
f 199/114/257 198/113/256 191/105/249 192/106/250 
f 199/114/257 192/106/250 124/107/182 132/115/190 
f 200/116/258 201/117/259 194/109/252 193/108/251 
f 202/118/260 200/116/258 193/108/251 195/110/253 
f 203/119/261 202/118/260 195/110/253 196/111/254 
f 204/120/262 203/119/261 196/111/254 197/112/255 
f 205/121/263 204/120/262 197/112/255 198/113/256 
f 206/122/264 205/121/263 198/113/256 199/114/257 
f 206/122/264 199/114/257 132/115/190 140/123/198 
f 207/124/265 208/125/266 201/117/259 200/116/258 
f 209/126/267 207/124/265 200/116/258 202/118/260 
f 210/127/268 209/126/267 202/118/260 203/119/261 
f 211/128/269 210/127/268 203/119/261 204/120/262 
f 212/129/270 211/128/269 204/120/262 205/121/263 
f 213/130/271 212/129/270 205/121/263 206/122/264 
f 213/130/271 206/122/264 140/123/198 148/131/206 
f 214/132/272 215/133/273 208/125/266 207/124/265 
f 216/134/274 214/132/272 207/124/265 209/126/267 
f 217/135/275 216/134/274 209/126/267 210/127/268 
f 218/136/276 217/135/275 210/127/268 211/128/269 
f 219/137/277 218/136/276 211/128/269 212/129/270 
f 220/138/278 219/137/277 212/129/270 213/130/271 
f 220/138/278 213/130/271 148/131/206 156/139/214 
f 157/140/215 158/141/216 174/86/232 
f 158/141/216 159/142/279 175/85/233 174/86/232 
f 159/142/279 158/143/216 177/89/235 175/85/233 
f 158/143/216 160/144/280 179/91/237 177/89/235 
f 160/144/280 158/145/216 181/93/239 179/91/237 
f 158/145/216 161/146/281 183/95/241 181/93/239 
f 161/146/281 158/147/216 185/97/243 183/95/241 
f 158/147/216 116/99/174 185/97/243 
f 173/87/231 162/148/220 157/140/215 174/86/232 
f 187/101/245 163/149/221 162/148/220 173/87/231 
f 194/109/252 164/150/222 163/149/221 187/101/245 
f 201/117/259 165/151/223 164/150/222 194/109/252 
f 208/125/266 166/152/224 165/151/223 201/117/259 
f 215/133/273 167/153/225 166/152/224 208/125/266 
f 168/154/226 167/153/225 215/133/273 
f 168/154/226 215/133/273 214/132/272 169/155/282 
f 169/155/282 214/132/272 216/134/274 168/156/226 
f 168/156/226 216/134/274 217/135/275 170/157/283 
f 170/157/283 217/135/275 218/136/276 168/158/226 
f 168/158/226 218/136/276 219/137/277 171/159/284 
f 171/159/284 219/137/277 220/138/278 168/160/226 
f 156/139/214 168/160/226 220/138/278 
# 207 polygons - 14 triangles

#
# object Plane02
#

v  -5.6938 33.7707 2.3767
v  -7.6961 44.8232 2.3767
v  -13.0583 43.5921 2.3767
v  -13.0583 37.0759 2.3767
v  -19.2324 41.1291 2.3767
v  -19.2324 37.9278 2.3767
v  -23.4972 39.4246 2.3767
v  -26.3924 37.5346 2.3767
v  -6.3294 31.0608 2.3767
v  -3.8807 29.2574 2.3767
v  -12.0657 31.9456 2.3767
v  -9.5803 47.7843 2.3767
v  -12.8916 47.7203 2.3767
v  -9.5803 51.3288 2.3767
v  -11.6285 49.8252 2.3767
v  -0.0722 45.3239 2.3767
v  -0.0722 59.5288 2.3767
v  -3.9937 52.6895 2.3767
v  -0.0722 33.7707 2.3767
v  -0.0722 29.2574 2.3767
v  -3.3724 28.0245 2.3767
v  -0.0722 28.0245 2.3767
v  -5.2733 26.6619 2.3767
v  -0.0722 26.6619 2.3767
v  -3.3724 24.8420 2.3767
v  -0.0722 24.8420 2.3767
v  -3.9506 23.4173 2.3767
v  -0.0722 23.4173 2.3767
v  -6.0811 22.2108 2.3767
v  -0.0722 22.2108 2.3767
v  -2.4800 19.2469 2.3767
v  -0.0722 11.9966 2.3767
v  5.5495 33.7707 2.3767
v  12.9140 37.0759 2.3767
v  12.9140 43.5921 2.3767
v  7.5518 44.8232 2.3767
v  19.0880 37.9278 2.3767
v  19.0880 41.1291 2.3767
v  26.2480 37.5346 2.3767
v  22.6458 39.4246 2.3767
v  6.1851 31.0608 2.3767
v  11.9214 31.9456 2.3767
v  3.7364 29.2574 2.3767
v  12.7472 47.7203 2.3767
v  9.4359 47.7843 2.3767
v  11.4841 49.8252 2.3767
v  9.4359 51.3288 2.3767
v  3.8493 52.6895 2.3767
v  3.2281 28.0245 2.3767
v  5.1290 26.6619 2.3767
v  3.2281 24.8420 2.3767
v  3.8063 23.4173 2.3767
v  5.9368 22.2108 2.3767
v  2.3357 19.2469 2.3767
# 54 vertices

vn -0.0000 -0.0000 1.0000
vn 0.0000 -0.0000 1.0000
vn -0.0000 0.0000 1.0000
vn 0.0000 0.0000 1.0000
# 4 vertex normals

vt 0.0000 0.0000 0.0000
vt 0.9963 0.0000 0.0000
vt 0.9928 1.0000 0.0000
vt 0.0000 1.0000 0.0000
vt 0.9953 0.0000 0.0000
vt 0.9946 0.0000 0.0000
vt 0.9954 0.0000 0.0000
vt 0.9970 0.0000 0.0000
vt 0.9926 0.0000 0.0000
# 9 texture coords

g Plane02
usemtl wire_087225143
s off
f 221/161/285 222/161/285 223/161/285 224/161/285 
f 224/161/285 223/161/285 225/161/285 226/161/285 
f 226/161/286 225/161/286 227/161/286 228/161/286 
f 229/161/287 230/161/287 221/161/287 231/161/287 
f 223/161/287 222/161/287 232/161/287 233/161/287 
f 233/161/285 232/161/285 234/161/285 235/161/285 
s 1
f 236/162/288 237/163/288 238/164/287 222/161/287 
s off
f 222/161/285 221/161/285 239/162/285 236/162/285 
f 239/162/288 221/161/288 230/161/288 240/165/288 
f 240/165/286 230/161/286 241/161/286 242/166/286 
f 241/161/286 243/161/286 244/165/286 242/166/286 
f 244/165/288 243/161/288 245/161/288 246/166/288 
f 245/161/288 247/161/288 248/167/288 246/166/288 
f 247/161/286 249/161/286 250/168/286 248/167/286 
f 251/161/288 252/169/288 250/168/288 249/161/288 
f 253/161/286 254/161/286 255/161/286 256/161/286 
f 254/161/286 257/161/286 258/161/286 255/161/286 
f 257/161/286 259/161/286 260/161/286 258/161/286 
f 261/161/288 262/161/288 253/161/288 263/161/288 
f 255/161/288 264/161/288 265/161/288 256/161/288 
f 264/161/286 266/161/286 267/161/286 265/161/286 
s 1
f 236/162/288 256/161/288 268/164/288 237/163/288 
s off
f 256/161/286 236/162/286 239/162/286 253/161/286 
f 239/162/288 240/165/288 263/161/288 253/161/288 
f 240/165/286 242/166/286 269/161/286 263/161/286 
f 269/161/286 242/166/286 244/165/286 270/161/286 
f 244/165/288 246/166/288 271/161/288 270/161/288 
f 271/161/288 246/166/288 248/167/288 272/161/288 
f 272/161/286 248/167/286 250/168/286 273/161/286 
f 274/161/287 273/161/287 250/168/287 252/169/287 
# 30 polygons

#
# object Object01
#

v  -2.2407 47.2631 2.5879
v  -4.2870 45.0246 2.5879
v  -0.0294 45.0246 2.5879
v  -0.0294 49.6453 2.5879
v  -2.2252 35.9074 2.5879
v  -0.0294 35.4561 2.5879
v  -0.0294 37.1111 2.5857
v  -3.5560 37.0979 2.5879
v  -4.5752 40.7197 2.5879
v  -4.0042 42.2667 2.5879
v  -5.2718 41.8678 2.5879
v  -9.2996 41.9634 2.5879
v  -4.4876 38.8290 2.5879
v  -10.0696 39.0122 2.5879
v  -13.1667 41.2724 2.5879
v  -16.5831 39.5875 2.5879
v  -3.1722 43.6008 2.5879
v  -0.0294 43.6008 2.5879
v  -0.0294 42.2520 2.5857
v  -0.0294 40.7197 2.5879
v  -0.0294 38.8206 2.5879
v  2.1818 47.2631 2.5879
v  4.2281 45.0246 2.5879
v  2.1664 35.9074 2.5879
v  3.4972 37.0979 2.5879
v  4.5163 40.7197 2.5879
v  9.2408 41.9634 2.5879
v  5.2130 41.8678 2.5879
v  3.9454 42.2667 2.5879
v  4.4287 38.8290 2.5879
v  10.0107 39.0122 2.5879
v  13.1078 41.2724 2.5879
v  16.5242 39.5875 2.5879
v  3.1134 43.6008 2.5879
# 34 vertices

vn 0.0000 -0.0000 1.0000
vn 0.0005 0.0009 1.0000
vn 0.0000 0.0013 1.0000
vn 0.0000 -0.0001 1.0000
vn 0.0002 -0.0000 1.0000
vn -0.0000 -0.0000 1.0000
vn 0.0002 0.0000 1.0000
vn 0.0000 0.0000 1.0000
vn 0.0002 -0.0003 1.0000
vn 0.0000 -0.0008 1.0000
vn 0.0000 0.0001 1.0000
vn -0.0000 0.0005 1.0000
vn 0.0000 -0.0005 1.0000
vn -0.0005 0.0009 1.0000
vn -0.0002 -0.0000 1.0000
vn -0.0002 0.0000 1.0000
vn -0.0000 0.0000 1.0000
vn -0.0002 -0.0003 1.0000
# 18 vertex normals

vt 0.9429 0.1590 0.8725
vt 0.9194 0.1330 0.8725
vt 0.9683 0.1330 0.8725
vt 0.9683 0.1867 0.8725
vt 0.9431 0.0269 0.8725
vt 0.9683 0.0217 0.8725
vt 0.9683 0.0407 0.8725
vt 0.9278 0.0408 0.8725
vt 0.9161 0.0829 0.8725
vt 0.9226 0.1009 0.8725
vt 0.9081 0.0962 0.8725
vt 0.8618 0.0973 0.8725
vt 0.9171 0.0609 0.8725
vt 0.8530 0.0630 0.8725
vt 0.8174 0.0893 0.8725
vt 0.7781 0.0697 0.8725
vt 0.9322 0.1164 0.8725
vt 0.9683 0.1164 0.8725
vt 0.9683 0.1009 0.8725
vt 0.9683 0.0829 0.8725
vt 0.9683 0.0608 0.8725
# 21 texture coords

g Object01
usemtl 01___Default
s 1
f 275/170/289 276/171/289 277/172/289 278/173/289 
f 279/174/290 280/175/291 281/176/292 282/177/293 
f 283/178/294 284/179/295 285/180/294 286/181/289 
f 287/182/296 283/178/294 286/181/289 288/183/289 
f 282/177/293 287/182/296 288/183/289 
f 289/184/289 290/185/289 288/183/289 
f 288/183/289 286/181/289 289/184/289 
f 277/172/289 276/171/289 291/186/297 292/187/298 
f 291/186/297 284/179/295 293/188/299 292/187/298 
f 284/179/295 283/178/294 294/189/300 293/188/299 
f 294/189/300 283/178/294 287/182/296 295/190/301 
f 295/190/301 287/182/296 282/177/293 281/176/292 
f 296/170/289 278/173/289 277/172/289 297/171/289 
f 298/174/302 299/177/303 281/176/292 280/175/291 
f 300/178/289 301/181/289 302/180/289 303/179/304 
f 304/182/305 305/183/294 301/181/289 300/178/289 
f 299/177/303 305/183/294 304/182/305 
f 306/184/289 305/183/294 307/185/289 
f 305/183/294 306/184/289 301/181/289 
f 277/172/289 292/187/298 308/186/306 297/171/289 
f 308/186/306 292/187/298 293/188/299 303/179/304 
f 303/179/304 293/188/299 294/189/300 300/178/289 
f 294/189/300 295/190/301 304/182/305 300/178/289 
f 295/190/301 281/176/292 299/177/303 304/182/305 
# 18 polygons - 6 triangles

