# 3ds Max Wavefront OBJ Exporter v0.97b - (c)2007 guruware
# File Created: 21.03.2016 08:54:10

mtllib Orithia_Shield03.mtl

#
# object Box01
#

v  -16.5398 18.1145 -2.3539
v  -19.1560 36.1787 -2.6244
v  -10.7510 35.1886 -0.7755
v  -10.5667 12.2070 -1.0401
v  -16.9090 18.1145 -0.2604
v  -10.9358 12.2070 1.0534
v  -11.1202 35.1886 1.3180
v  -19.5251 36.1787 -0.5309
v  -25.1691 52.5009 -1.2971
v  -24.8000 52.5009 -3.3906
v  -10.2288 51.9576 -0.4869
v  -5.0601 52.0243 -0.2464
v  -4.7597 34.1071 -0.3915
v  -4.6748 7.2967 1.5854
v  -4.9442 34.1073 1.7182
v  -4.4902 7.2975 -0.5242
v  -12.5108 62.3637 -1.0660
v  -12.8800 62.3637 1.0275
v  -12.6461 59.7194 1.1158
v  -12.2770 59.7194 -0.9777
v  -10.5979 51.9576 1.6066
v  -20.5132 55.1591 -2.1736
v  -10.1186 55.1502 -0.6776
v  -20.8823 55.1591 -0.0801
v  -10.4878 55.1502 1.4159
v  -5.2447 52.0237 1.8632
v  -5.1927 54.8632 1.7784
v  -10.0085 58.3429 -0.8684
v  -17.4147 58.3492 -1.4167
v  -17.7839 58.3492 0.6768
v  -10.3776 58.3429 1.2251
v  -4.9561 58.1632 -0.4160
v  -5.0081 54.8638 -0.3312
v  -0.0294 51.4019 -0.0123
v  -0.0294 32.2230 -0.0183
v  -0.0294 4.7737 2.1022
v  -0.0294 32.2212 2.1075
v  -0.0294 4.7782 -0.0238
v  -5.1407 58.1627 1.6936
v  -0.0294 51.4002 2.1133
v  -0.0294 53.8948 2.1320
v  -0.0294 57.0911 0.0252
v  -0.0294 53.8969 0.0063
v  -6.2916 13.1576 1.4330
v  -4.7885 13.6020 2.8753
v  -5.3383 17.4618 2.8753
v  -7.4515 19.6022 1.3897
v  -3.2847 13.8085 1.7192
v  -3.2839 15.6036 1.7192
v  -4.3439 10.4938 1.6024
v  -3.1172 11.3850 2.8753
v  -1.9585 12.1763 1.7192
v  -0.0294 7.3253 2.0377
v  -0.0294 8.8515 2.8376
v  -0.0294 9.5511 3.1971
v  -0.0294 11.2876 2.0410
v  -0.9947 41.5009 1.2034
v  -0.5463 42.0583 1.6518
v  -0.3037 42.0583 1.4897
v  -0.5463 41.5009 0.9039
v  -1.2943 41.5009 1.6518
v  -0.7085 42.0583 1.8944
v  -1.3995 41.5009 2.1807
v  -0.7654 42.0583 2.1807
v  -1.2943 41.5009 2.7095
v  -0.7085 42.0583 2.4669
v  -0.9947 41.5009 3.1579
v  -0.5463 42.0583 2.7095
v  -0.5463 41.5009 3.4574
v  -0.3037 42.0583 2.8716
v  -0.0294 41.5009 3.5603
v  -0.0294 42.0583 2.9262
v  -1.2943 40.6666 0.9039
v  -0.7085 40.6666 0.5124
v  -1.6857 40.6666 1.4897
v  -1.8231 40.6666 2.1807
v  -1.6857 40.6666 2.8716
v  -1.2943 40.6666 3.4574
v  -0.7085 40.6666 3.8489
v  -0.0294 40.6666 3.9839
v  -1.3995 39.6824 0.7987
v  -0.7654 39.6824 0.3750
v  -1.8231 39.6824 1.4327
v  -1.9719 39.6824 2.1807
v  -1.8231 39.6824 2.9286
v  -1.3995 39.6824 3.5626
v  -0.7654 39.6824 3.9863
v  -0.0294 39.6824 4.1327
v  -1.2943 38.6983 0.9039
v  -0.7085 38.6983 0.5124
v  -1.6857 38.6983 1.4897
v  -1.8231 38.6983 2.1807
v  -1.6857 38.6983 2.8716
v  -1.2943 38.6983 3.4574
v  -0.7085 38.6983 3.8489
v  -0.0294 38.6983 3.9839
v  -0.9947 37.8640 1.2034
v  -0.5463 37.8640 0.9039
v  -1.2943 37.8640 1.6518
v  -1.3995 37.8640 2.1807
v  -1.2943 37.8640 2.7095
v  -0.9947 37.8640 3.1579
v  -0.5463 37.8640 3.4574
v  -0.0294 37.8640 3.5603
v  -0.5463 37.3065 1.6518
v  -0.3037 37.3065 1.4897
v  -0.7085 37.3065 1.8944
v  -0.7654 37.3065 2.1807
v  -0.7085 37.3065 2.4669
v  -0.5463 37.3065 2.7095
v  -0.3037 37.3065 2.8716
v  -0.0294 37.3065 2.9262
v  -0.0294 57.0890 2.1509
v  -0.0294 42.0583 1.4351
v  -0.0294 42.2520 2.1812
v  -0.0294 42.2497 2.1687
v  -0.0294 42.2510 2.1807
v  -0.0294 42.2497 2.1926
v  -0.0294 41.5009 0.8010
v  -0.0294 40.6666 0.3774
v  -0.0294 39.6824 0.2286
v  -0.0294 38.6983 0.3774
v  -0.0294 37.8640 0.8010
v  -0.0294 37.3065 1.4351
v  -0.0294 37.1111 2.1812
v  -0.0294 37.1152 2.1687
v  -0.0294 37.1139 2.1807
v  -0.0294 37.1152 2.1926
v  16.4810 18.1145 -2.3539
v  10.5078 12.2070 -1.0401
v  10.6922 35.1886 -0.7755
v  19.0971 36.1787 -2.6244
v  16.8501 18.1145 -0.2604
v  19.4663 36.1787 -0.5309
v  11.0613 35.1886 1.3180
v  10.8770 12.2070 1.0534
v  24.7411 52.5009 -3.3906
v  25.1103 52.5009 -1.2971
v  10.1699 51.9576 -0.4869
v  4.7008 34.1071 -0.3915
v  5.0013 52.0243 -0.2464
v  4.8854 34.1073 1.7182
v  4.6160 7.2967 1.5854
v  4.4314 7.2975 -0.5242
v  12.4520 62.3637 -1.0660
v  12.2181 59.7194 -0.9777
v  12.5873 59.7194 1.1158
v  12.8211 62.3637 1.0275
v  10.5391 51.9576 1.6066
v  10.0598 55.1502 -0.6776
v  20.4544 55.1591 -2.1736
v  20.8235 55.1591 -0.0801
v  10.4289 55.1502 1.4159
v  5.1859 52.0237 1.8632
v  5.1338 54.8632 1.7784
v  17.3559 58.3492 -1.4167
v  9.9496 58.3429 -0.8684
v  17.7250 58.3492 0.6768
v  10.3188 58.3429 1.2251
v  4.9493 54.8638 -0.3312
v  4.8973 58.1632 -0.4160
v  5.0818 58.1627 1.6936
v  6.2328 13.1576 1.4330
v  7.3927 19.6022 1.3897
v  5.2795 17.4618 2.8753
v  4.7297 13.6020 2.8753
v  3.2250 15.6036 1.7192
v  3.2258 13.8085 1.7192
v  3.0584 11.3850 2.8753
v  4.2851 10.4938 1.6024
v  1.8997 12.1763 1.7192
v  0.9359 41.5009 1.2034
v  0.4875 41.5009 0.9039
v  0.2449 42.0583 1.4897
v  0.4875 42.0583 1.6518
v  1.2354 41.5009 1.6518
v  0.6496 42.0583 1.8944
v  1.3406 41.5009 2.1807
v  0.7066 42.0583 2.1807
v  1.2354 41.5009 2.7095
v  0.6496 42.0583 2.4669
v  0.9359 41.5009 3.1579
v  0.4875 42.0583 2.7095
v  0.4875 41.5009 3.4574
v  0.2449 42.0583 2.8716
v  1.2354 40.6666 0.9039
v  0.6496 40.6666 0.5124
v  1.6269 40.6666 1.4897
v  1.7643 40.6666 2.1807
v  1.6269 40.6666 2.8716
v  1.2354 40.6666 3.4574
v  0.6496 40.6666 3.8489
v  1.3406 39.6824 0.7987
v  0.7066 39.6824 0.3750
v  1.7643 39.6824 1.4327
v  1.9131 39.6824 2.1807
v  1.7643 39.6824 2.9286
v  1.3406 39.6824 3.5626
v  0.7066 39.6824 3.9863
v  1.2354 38.6983 0.9039
v  0.6496 38.6983 0.5124
v  1.6269 38.6983 1.4897
v  1.7643 38.6983 2.1807
v  1.6269 38.6983 2.8716
v  1.2354 38.6983 3.4574
v  0.6496 38.6983 3.8489
v  0.9359 37.8640 1.2034
v  0.4875 37.8640 0.9039
v  1.2354 37.8640 1.6518
v  1.3406 37.8640 2.1807
v  1.2354 37.8640 2.7095
v  0.9359 37.8640 3.1579
v  0.4875 37.8640 3.4574
v  0.4875 37.3065 1.6518
v  0.2449 37.3065 1.4897
v  0.6496 37.3065 1.8944
v  0.7066 37.3065 2.1807
v  0.6496 37.3065 2.4669
v  0.4875 37.3065 2.7095
v  0.2449 37.3065 2.8716
# 220 vertices

vn 0.2251 0.0138 -0.9742
vn 0.2175 0.0246 -0.9757
vn 0.1412 0.0160 -0.9898
vn 0.1235 0.0083 -0.9923
vn -0.2251 -0.0138 0.9742
vn -0.1236 -0.0083 0.9923
vn -0.1415 -0.0160 0.9898
vn -0.2175 -0.0246 0.9757
vn -0.6480 -0.7537 -0.1098
vn -0.6476 -0.7534 -0.1142
vn -0.8756 -0.4577 -0.1544
vn -0.8775 -0.4538 -0.1547
vn -0.9568 -0.2369 -0.1687
vn -0.9564 -0.2383 -0.1686
vn -0.9299 -0.3292 -0.1640
vn 0.1144 -0.0153 -0.9933
vn 0.0498 -0.0089 -0.9987
vn 0.0717 0.0077 -0.9974
vn -0.1023 -0.0023 0.9948
vn -0.0721 -0.0077 0.9974
vn -0.5585 -0.8280 -0.0492
vn -0.5551 -0.8304 -0.0484
vn 0.9806 0.0925 0.1729
vn 0.8434 0.5162 0.1487
vn 0.8284 0.5408 0.1461
vn 0.2014 0.0519 -0.9781
vn -0.1123 0.0176 0.9935
vn -0.2014 -0.0519 0.9781
vn 0.1806 0.1019 -0.9783
vn 0.0941 -0.0489 -0.9944
vn -0.5065 0.8576 -0.0893
vn -0.6105 0.7846 -0.1077
vn -0.6024 0.7911 -0.1062
vn -0.0918 0.0466 0.9947
vn -0.1806 -0.1019 0.9783
vn -0.0542 0.0117 0.9985
vn -0.0691 0.0257 0.9973
vn 0.0815 0.0136 -0.9966
vn 0.0794 -0.0466 -0.9958
vn 0.1200 0.0531 -0.9913
vn 0.0918 -0.0251 -0.9955
vn -0.6615 0.7409 -0.1166
vn -0.6622 0.7401 -0.1168
vn -0.6249 0.7729 -0.1102
vn -0.1200 -0.0531 0.9913
vn -0.0794 0.0466 0.9958
vn -0.0815 -0.0136 0.9966
vn -0.0918 0.0251 0.9955
vn 0.2981 0.9531 0.0526
vn 0.2677 0.9624 0.0468
vn 0.0780 -0.0336 -0.9964
vn 0.0651 -0.0283 -0.9975
vn 0.0000 0.0075 -1.0000
vn 0.0000 0.0034 -1.0000
vn 0.0000 -0.0002 1.0000
vn -0.0000 -0.0033 1.0000
vn -0.0000 -0.9999 -0.0132
vn 0.0000 -1.0000 -0.0022
vn 0.1228 0.9924 0.0092
vn 0.1235 0.9923 0.0111
vn 0.1030 0.0022 -0.9947
vn -0.0000 -0.0075 1.0000
vn 0.0000 -0.0003 1.0000
vn 0.0000 -0.0058 -1.0000
vn 0.0000 0.0001 -1.0000
vn -0.0783 0.0334 0.9964
vn -0.6321 -0.2317 0.7395
vn -0.6209 -0.2481 0.7436
vn -0.6504 -0.1079 0.7519
vn -0.6443 -0.1109 0.7567
vn 0.5613 0.1965 0.8040
vn 0.5696 0.2208 0.7917
vn 0.5650 0.0510 0.8235
vn 0.5410 0.0771 0.8375
vn -0.4778 -0.4335 0.7641
vn -0.4489 -0.4688 0.7608
vn 0.4181 0.5060 0.7545
vn 0.3601 0.5216 0.7735
vn -0.3961 -0.4242 0.8144
vn 1.0000 0.0000 -0.0000
vn -0.2762 -0.4823 0.8313
vn 0.0000 0.6012 0.7991
vn 0.0000 0.5542 0.8324
vn 0.6884 0.7226 0.0619
vn -0.5647 0.6018 -0.5647
vn -0.3472 0.8711 -0.3473
vn -0.1876 0.8713 -0.4534
vn -0.3056 0.6018 -0.7379
vn -0.7379 0.6018 -0.3056
vn -0.4540 0.8709 -0.1882
vn -0.7987 0.6018 -0.0000
vn -0.4915 0.8709 0.0002
vn -0.7379 0.6018 0.3056
vn -0.4540 0.8709 0.1880
vn -0.5647 0.6018 0.5647
vn -0.3474 0.8709 0.3475
vn -0.3056 0.6018 0.7379
vn -0.1877 0.8712 0.4536
vn 0.0000 0.6018 0.7987
vn -0.0000 0.8714 0.4906
vn -0.6747 0.2994 -0.6747
vn -0.3651 0.2994 -0.8815
vn -0.8815 0.2994 -0.3651
vn -0.9541 0.2994 -0.0000
vn -0.8815 0.2994 0.3651
vn -0.6747 0.2994 0.6747
vn -0.3651 0.2994 0.8815
vn -0.0000 0.2994 0.9541
vn -0.7071 0.0000 -0.7071
vn -0.3827 0.0000 -0.9239
vn -0.9239 0.0000 -0.3827
vn -1.0000 0.0000 -0.0000
vn -0.9239 -0.0000 0.3827
vn -0.7071 -0.0000 0.7071
vn -0.3827 0.0000 0.9239
vn -0.0000 0.0000 1.0000
vn -0.6747 -0.2994 -0.6747
vn -0.3651 -0.2994 -0.8815
vn -0.8815 -0.2994 -0.3651
vn -0.9541 -0.2994 -0.0000
vn -0.8815 -0.2994 0.3651
vn -0.6747 -0.2994 0.6747
vn -0.3651 -0.2994 0.8815
vn -0.0000 -0.2994 0.9541
vn -0.5647 -0.6018 -0.5647
vn -0.3056 -0.6018 -0.7379
vn -0.7379 -0.6018 -0.3056
vn -0.7987 -0.6018 -0.0000
vn -0.7379 -0.6018 0.3056
vn -0.5647 -0.6018 0.5647
vn -0.3056 -0.6018 0.7379
vn 0.0000 -0.6018 0.7987
vn -0.3477 -0.8709 -0.3474
vn -0.1879 -0.8708 -0.4542
vn -0.4543 -0.8707 -0.1886
vn -0.4919 -0.8707 0.0004
vn -0.4545 -0.8707 0.1879
vn -0.3475 -0.8707 0.3480
vn -0.1881 -0.8710 0.4539
vn 0.0000 -0.8709 0.4914
vn -0.0000 1.0000 0.0053
vn 0.0000 1.0000 0.0010
vn 0.0000 0.0002 -1.0000
vn 0.0000 0.0054 1.0000
vn -0.0000 0.8715 -0.4904
vn -0.0000 0.9997 -0.0234
vn -0.9538 -0.1363 0.2677
vn -0.8458 0.2971 0.4432
vn 0.9811 0.1528 0.1189
vn -0.0000 0.6018 -0.7987
vn 0.0000 0.2994 -0.9541
vn 0.0000 0.0000 -1.0000
vn 0.0000 -0.2994 -0.9541
vn -0.0000 -0.6018 -0.7987
vn -0.0000 -0.8710 -0.4913
vn 0.0000 -1.0000 0.0084
vn -0.9690 0.0143 0.2468
vn -0.8751 -0.3830 0.2960
vn -0.9935 -0.1005 -0.0537
vn -0.2251 0.0138 -0.9742
vn -0.1235 0.0083 -0.9923
vn -0.1412 0.0160 -0.9898
vn -0.2175 0.0246 -0.9757
vn 0.2251 -0.0138 0.9742
vn 0.2175 -0.0246 0.9757
vn 0.1415 -0.0160 0.9898
vn 0.1236 -0.0083 0.9923
vn 0.6480 -0.7537 -0.1098
vn 0.8775 -0.4538 -0.1547
vn 0.8756 -0.4577 -0.1544
vn 0.6476 -0.7534 -0.1142
vn 0.9568 -0.2369 -0.1687
vn 0.9299 -0.3292 -0.1640
vn 0.9564 -0.2383 -0.1686
vn -0.1144 -0.0153 -0.9933
vn -0.0717 0.0077 -0.9974
vn -0.0498 -0.0089 -0.9987
vn 0.0721 -0.0077 0.9974
vn 0.1023 -0.0023 0.9948
vn 0.5551 -0.8304 -0.0484
vn 0.5585 -0.8280 -0.0492
vn -0.9806 0.0925 0.1729
vn -0.8284 0.5408 0.1461
vn -0.8434 0.5162 0.1487
vn -0.2014 0.0519 -0.9781
vn 0.2014 -0.0519 0.9781
vn 0.1123 0.0176 0.9935
vn -0.0941 -0.0489 -0.9944
vn -0.1806 0.1019 -0.9783
vn 0.5065 0.8576 -0.0893
vn 0.6024 0.7911 -0.1062
vn 0.6105 0.7846 -0.1077
vn 0.1806 -0.1019 0.9783
vn 0.0918 0.0466 0.9947
vn 0.0542 0.0117 0.9985
vn 0.0691 0.0257 0.9973
vn -0.0815 0.0136 -0.9966
vn -0.0918 -0.0251 -0.9955
vn -0.1200 0.0531 -0.9913
vn -0.0794 -0.0466 -0.9958
vn 0.6615 0.7409 -0.1166
vn 0.6249 0.7729 -0.1102
vn 0.6622 0.7401 -0.1168
vn 0.1200 -0.0531 0.9913
vn 0.0918 0.0251 0.9955
vn 0.0815 -0.0136 0.9966
vn 0.0794 0.0466 0.9958
vn -0.2981 0.9531 0.0526
vn -0.2677 0.9624 0.0468
vn -0.0651 -0.0283 -0.9975
vn -0.0780 -0.0336 -0.9964
vn -0.1235 0.9923 0.0111
vn -0.1228 0.9924 0.0092
vn -0.1030 0.0022 -0.9947
vn 0.0783 0.0334 0.9964
vn 0.6321 -0.2317 0.7395
vn 0.6443 -0.1109 0.7567
vn 0.6504 -0.1079 0.7519
vn 0.6209 -0.2481 0.7436
vn -0.5613 0.1965 0.8040
vn -0.5410 0.0771 0.8375
vn -0.5650 0.0510 0.8235
vn -0.5696 0.2208 0.7917
vn 0.4489 -0.4688 0.7608
vn 0.4778 -0.4335 0.7641
vn -0.3601 0.5216 0.7735
vn -0.4181 0.5060 0.7545
vn 0.3941 -0.4246 0.8151
vn -0.6884 0.7226 0.0619
vn 0.5647 0.6018 -0.5647
vn 0.3056 0.6018 -0.7379
vn 0.1876 0.8713 -0.4534
vn 0.3472 0.8711 -0.3473
vn 0.7379 0.6018 -0.3056
vn 0.4540 0.8709 -0.1882
vn 0.7987 0.6018 -0.0000
vn 0.4915 0.8709 0.0002
vn 0.7379 0.6018 0.3056
vn 0.4540 0.8709 0.1880
vn 0.5647 0.6018 0.5647
vn 0.3474 0.8709 0.3475
vn 0.3056 0.6018 0.7379
vn 0.1877 0.8712 0.4536
vn 0.6747 0.2994 -0.6747
vn 0.3651 0.2994 -0.8815
vn 0.8815 0.2994 -0.3651
vn 0.9541 0.2994 -0.0000
vn 0.8815 0.2994 0.3651
vn 0.6747 0.2994 0.6747
vn 0.3651 0.2994 0.8815
vn 0.7071 0.0000 -0.7071
vn 0.3827 0.0000 -0.9239
vn 0.9239 -0.0000 -0.3827
vn 1.0000 -0.0000 -0.0000
vn 0.9239 -0.0000 0.3827
vn 0.7071 -0.0000 0.7071
vn 0.3827 0.0000 0.9239
vn 0.6747 -0.2994 -0.6747
vn 0.3651 -0.2994 -0.8815
vn 0.8815 -0.2994 -0.3651
vn 0.9541 -0.2994 -0.0000
vn 0.8815 -0.2994 0.3651
vn 0.6747 -0.2994 0.6747
vn 0.3651 -0.2994 0.8815
vn 0.5647 -0.6018 -0.5647
vn 0.3056 -0.6018 -0.7379
vn 0.7379 -0.6018 -0.3056
vn 0.7987 -0.6018 -0.0000
vn 0.7379 -0.6018 0.3056
vn 0.5647 -0.6018 0.5647
vn 0.3056 -0.6018 0.7379
vn 0.3477 -0.8709 -0.3474
vn 0.1879 -0.8708 -0.4542
vn 0.4543 -0.8707 -0.1886
vn 0.4919 -0.8707 0.0004
vn 0.4545 -0.8707 0.1879
vn 0.3475 -0.8707 0.3480
vn 0.1881 -0.8710 0.4539
vn 0.9538 -0.1364 0.2677
vn 0.8458 0.2971 0.4432
vn -0.9811 0.1527 0.1189
vn 0.9690 0.0143 0.2468
vn 0.8750 -0.3830 0.2960
vn 0.9935 -0.1005 -0.0537
# 284 vertex normals

vt 0.8464 0.3017 0.1571
vt 0.8917 0.5430 0.1162
vt 0.7462 0.5298 0.3955
vt 0.7430 0.2228 0.3555
vt 0.2247 0.2786 0.4733
vt 0.3281 0.1957 0.6717
vt 0.3249 0.5183 0.7117
vt 0.1794 0.5322 0.4324
vt 0.0320 0.1809 0.5776
vt 0.0559 0.1818 0.5630
vt 0.0515 0.2311 0.3269
vt 0.0270 0.2304 0.3415
vt 0.0258 0.3834 0.2381
vt 0.0496 0.3837 0.2236
vt 0.0501 0.5349 0.0005
vt 0.0266 0.5348 0.0151
vt 0.7371 0.7537 0.4391
vt 0.6476 0.7546 0.4754
vt 0.6424 0.5153 0.4535
vt 0.4364 0.1267 0.7521
vt 0.4318 0.5031 0.7721
vt 0.0297 0.1263 0.8178
vt 0.0531 0.1260 0.8105
vt 0.0269 0.6717 0.5008
vt 0.0509 0.6712 0.4862
vt 0.0525 0.7078 0.4954
vt 0.0287 0.7089 0.5100
vt 0.9894 0.7610 0.0005
vt 0.3339 0.7537 0.7553
vt 0.0817 0.7613 0.3167
vt 0.9151 0.7965 0.1843
vt 0.7352 0.7964 0.4103
vt 0.0542 0.5680 0.1699
vt 0.0304 0.5680 0.1845
vt 0.3358 0.7985 0.7265
vt 0.1559 0.7986 0.5005
vt 0.4266 0.7546 0.7941
vt 0.4275 0.7945 0.7812
vt 0.7726 0.8574 0.3649
vt 0.7333 0.8390 0.3815
vt 0.8615 0.8391 0.2986
vt 0.7766 0.8927 0.3516
vt 0.0318 0.6049 0.3070
vt 0.0560 0.6047 0.2924
vt 0.2095 0.8434 0.6148
vt 0.3377 0.8433 0.6977
vt 0.2985 0.8627 0.6812
vt 0.2944 0.8998 0.6678
vt 0.0516 0.7495 0.9298
vt 0.0279 0.7513 0.9298
vt 0.6458 0.8366 0.4498
vt 0.6467 0.7925 0.4626
vt 0.5606 0.7463 0.5108
vt 0.5606 0.4902 0.5099
vt 0.5169 0.0913 0.8301
vt 0.5169 0.4766 0.8309
vt 0.0308 0.0828 0.9940
vt 0.0544 0.0812 0.9940
vt 0.0522 0.8166 0.9267
vt 0.0287 0.8168 0.9267
vt 0.6378 0.1573 0.4334
vt 0.5169 0.7459 0.8318
vt 0.5169 0.7809 0.8346
vt 0.5606 0.8223 0.5164
vt 0.5606 0.7796 0.5136
vt 0.4284 0.8408 0.7684
vt 0.7912 0.1588 0.7253
vt 0.8165 0.1533 0.9495
vt 0.8108 0.1829 0.9495
vt 0.7755 0.2139 0.7186
vt 0.8318 0.1626 0.7698
vt 0.8344 0.1976 0.7698
vt 0.8174 0.1206 0.7516
vt 0.8367 0.1380 0.9495
vt 0.8529 0.1511 0.7698
vt 0.8767 0.1054 0.8193
vt 0.8755 0.1213 0.9436
vt 0.8748 0.1284 0.9995
vt 0.8754 0.1477 0.8198
vt 0.1543 0.1865 0.2407
vt 0.1719 0.1979 0.3596
vt 0.1814 0.1979 0.3166
vt 0.1719 0.1865 0.1612
vt 0.1425 0.1865 0.3596
vt 0.1655 0.1979 0.4240
vt 0.1384 0.1865 0.5000
vt 0.1633 0.1979 0.5000
vt 0.1425 0.1865 0.6404
vt 0.1655 0.1979 0.5760
vt 0.1543 0.1865 0.7593
vt 0.1719 0.1979 0.6404
vt 0.1719 0.1865 0.8388
vt 0.1814 0.1979 0.6834
vt 0.1922 0.1865 0.8661
vt 0.1922 0.1979 0.6979
vt 0.1425 0.1693 0.1612
vt 0.1655 0.1693 0.0573
vt 0.1272 0.1693 0.3166
vt 0.1218 0.1693 0.5000
vt 0.1272 0.1693 0.6834
vt 0.1425 0.1693 0.8388
vt 0.1655 0.1693 0.9427
vt 0.1922 0.1693 0.9786
vt 0.1384 0.1491 0.1332
vt 0.1633 0.1491 0.0208
vt 0.1218 0.1491 0.3015
vt 0.1160 0.1491 0.5000
vt 0.1218 0.1491 0.6985
vt 0.1384 0.1491 0.8668
vt 0.1633 0.1491 0.9792
vt 0.1922 0.1491 1.0181
vt 0.1425 0.1289 0.1612
vt 0.1655 0.1289 0.0573
vt 0.1272 0.1289 0.3166
vt 0.1218 0.1289 0.5000
vt 0.1272 0.1289 0.6834
vt 0.1425 0.1289 0.8388
vt 0.1655 0.1289 0.9427
vt 0.1922 0.1289 0.9786
vt 0.1543 0.1118 0.2407
vt 0.1719 0.1118 0.1612
vt 0.1425 0.1118 0.3596
vt 0.1384 0.1118 0.5000
vt 0.1425 0.1118 0.6404
vt 0.1543 0.1118 0.7593
vt 0.1719 0.1118 0.8388
vt 0.1922 0.1118 0.8661
vt 0.1719 0.1003 0.3596
vt 0.1814 0.1003 0.3166
vt 0.1655 0.1003 0.4240
vt 0.1633 0.1003 0.5000
vt 0.1655 0.1003 0.5760
vt 0.1719 0.1003 0.6404
vt 0.1814 0.1003 0.6834
vt 0.1922 0.1003 0.6979
vt 0.0299 0.8755 0.9082
vt 0.0531 0.8771 0.9081
vt 0.5606 0.1236 0.5090
vt 0.5169 0.8257 0.8375
vt 0.1922 0.1979 0.3021
vt 0.1922 0.2018 0.4924
vt 0.1922 0.2018 0.4968
vt 0.1922 0.2019 0.4987
vt 0.1922 0.2019 0.5000
vt 0.1922 0.2019 0.5013
vt 0.1922 0.2018 0.5032
vt 0.1922 0.2018 0.5076
vt 0.1922 0.1865 0.1339
vt 0.1922 0.1693 0.0214
vt 0.1922 0.1491 -0.0181
vt 0.1922 0.1289 0.0214
vt 0.1922 0.1118 0.1339
vt 0.1922 0.1003 0.3021
vt 0.1922 0.0965 0.4924
vt 0.1922 0.0964 0.4968
vt 0.1922 0.0964 0.4987
vt 0.1922 0.0963 0.5000
vt 0.1922 0.0964 0.5013
vt 0.1922 0.0964 0.5032
vt 0.1922 0.0965 0.5076
# 160 texture coords

g Box01
usemtl 01___Default
s 4
f 1/1/1 2/2/2 3/3/3 4/4/4 
f 5/5/5 6/6/6 7/7/7 8/8/8 
s 1
f 4/9/9 6/10/10 5/11/11 1/12/12 
f 2/13/13 8/14/14 9/15/15 10/16/15 
s 4
f 11/17/16 12/18/17 13/19/18 3/3/3 
f 6/6/6 14/20/19 15/21/20 7/7/7 
s 1
f 4/9/9 16/22/21 14/23/22 6/10/10 
f 17/24/23 18/25/23 19/26/24 20/27/25 
s 4
f 10/28/26 11/17/16 3/3/3 2/2/2 
f 7/7/7 21/29/27 9/30/28 8/8/8 
s 1
f 1/12/12 5/11/11 8/14/14 2/13/13 
s 4
f 11/17/16 10/28/26 22/31/29 23/32/30 
s 2
f 9/15/31 24/33/32 22/34/33 10/16/31 
s 4
f 21/29/27 25/35/34 24/36/35 9/30/28 
f 26/37/36 27/38/37 25/35/34 21/29/27 
f 20/39/38 28/40/39 29/41/40 17/42/41 
s 2
f 29/43/42 30/44/43 18/25/44 17/24/44 
s 4
f 30/45/45 31/46/46 19/47/47 18/48/48 
s 1
f 31/49/49 28/50/50 20/27/25 19/26/24 
s 4
f 29/41/40 28/40/39 23/32/30 22/31/29 
s 2
f 24/33/32 30/44/43 29/43/42 22/34/33 
s 4
f 25/35/34 31/46/46 30/45/45 24/36/35 
f 23/32/30 28/40/39 32/51/51 33/52/52 
f 34/53/53 35/54/54 13/19/18 12/18/17 
f 14/20/19 36/55/55 37/56/56 15/21/20 
s 1
f 38/57/57 36/58/58 14/23/22 16/22/21 
f 28/50/50 31/49/49 39/59/59 32/60/60 
s 4
f 4/4/4 3/3/3 13/19/18 16/61/61 
f 21/29/27 7/7/7 15/21/20 26/37/36 
f 11/17/16 23/32/30 33/52/52 12/18/17 
f 26/37/36 40/62/62 41/63/63 27/38/37 
f 42/64/64 43/65/65 33/52/52 32/51/51 
f 39/66/66 31/46/46 25/35/34 27/38/37 
s 1
f 44/67/67 45/68/68 46/69/69 47/70/70 
s 2
f 45/68/71 48/71/72 49/72/73 46/69/74 
s 1
f 45/68/68 44/67/67 50/73/75 51/74/76 
s 2
f 48/71/72 45/68/71 51/74/77 52/75/78 
s 1
f 53/76/79 54/77/80 55/78/81 50/73/75 
f 51/74/76 50/73/75 55/78/81 
s 2
f 52/75/78 51/74/77 55/78/82 56/79/83 
s 4
f 46/69/84 49/72/84 47/70/84 
s 1
f 57/80/85 58/81/86 59/82/87 60/83/88 
f 61/84/89 62/85/90 58/81/86 57/80/85 
f 63/86/91 64/87/92 62/85/90 61/84/89 
f 65/88/93 66/89/94 64/87/92 63/86/91 
f 67/90/95 68/91/96 66/89/94 65/88/93 
f 69/92/97 70/93/98 68/91/96 67/90/95 
f 69/92/97 71/94/99 72/95/100 70/93/98 
f 73/96/101 57/80/85 60/83/88 74/97/102 
f 75/98/103 61/84/89 57/80/85 73/96/101 
f 76/99/104 63/86/91 61/84/89 75/98/103 
f 77/100/105 65/88/93 63/86/91 76/99/104 
f 78/101/106 67/90/95 65/88/93 77/100/105 
f 79/102/107 69/92/97 67/90/95 78/101/106 
f 79/102/107 80/103/108 71/94/99 69/92/97 
f 81/104/109 73/96/101 74/97/102 82/105/110 
f 83/106/111 75/98/103 73/96/101 81/104/109 
f 84/107/112 76/99/104 75/98/103 83/106/111 
f 85/108/113 77/100/105 76/99/104 84/107/112 
f 86/109/114 78/101/106 77/100/105 85/108/113 
f 87/110/115 79/102/107 78/101/106 86/109/114 
f 87/110/115 88/111/116 80/103/108 79/102/107 
f 89/112/117 81/104/109 82/105/110 90/113/118 
f 91/114/119 83/106/111 81/104/109 89/112/117 
f 92/115/120 84/107/112 83/106/111 91/114/119 
f 93/116/121 85/108/113 84/107/112 92/115/120 
f 94/117/122 86/109/114 85/108/113 93/116/121 
f 95/118/123 87/110/115 86/109/114 94/117/122 
f 95/118/123 96/119/124 88/111/116 87/110/115 
f 97/120/125 89/112/117 90/113/118 98/121/126 
f 99/122/127 91/114/119 89/112/117 97/120/125 
f 100/123/128 92/115/120 91/114/119 99/122/127 
f 101/124/129 93/116/121 92/115/120 100/123/128 
f 102/125/130 94/117/122 93/116/121 101/124/129 
f 103/126/131 95/118/123 94/117/122 102/125/130 
f 103/126/131 104/127/132 96/119/124 95/118/123 
f 105/128/133 97/120/125 98/121/126 106/129/134 
f 107/130/135 99/122/127 97/120/125 105/128/133 
f 108/131/136 100/123/128 99/122/127 107/130/135 
f 109/132/137 101/124/129 100/123/128 108/131/136 
f 110/133/138 102/125/130 101/124/129 109/132/137 
f 111/134/139 103/126/131 102/125/130 110/133/138 
f 111/134/139 112/135/140 104/127/132 103/126/131 
f 42/136/141 32/60/60 39/59/59 113/137/142 
s 4
f 16/61/61 13/19/18 35/54/54 38/138/143 
f 40/62/62 26/37/36 15/21/20 37/56/56 
f 12/18/17 33/52/52 43/65/65 34/53/53 
f 113/139/144 39/66/66 27/38/37 41/63/63 
s 1
f 114/140/145 59/82/87 115/141/146 
f 115/141/146 59/82/87 58/81/86 116/142/147 
f 116/142/147 58/81/86 62/85/90 115/143/146 
f 115/143/146 62/85/90 64/87/92 117/144/148 
f 117/144/148 64/87/92 66/89/94 115/145/146 
f 115/145/146 66/89/94 68/91/96 118/146/149 
f 118/146/149 68/91/96 70/93/98 115/147/146 
f 115/147/146 70/93/98 72/95/100 
f 60/83/88 59/82/87 114/140/145 119/148/150 
f 74/97/102 60/83/88 119/148/150 120/149/151 
f 82/105/110 74/97/102 120/149/151 121/150/152 
f 90/113/118 82/105/110 121/150/152 122/151/153 
f 98/121/126 90/113/118 122/151/153 123/152/154 
f 106/129/134 98/121/126 123/152/154 124/153/155 
f 125/154/156 106/129/134 124/153/155 
f 125/154/156 126/155/157 105/128/133 106/129/134 
f 126/155/157 125/156/156 107/130/135 105/128/133 
f 125/156/156 127/157/158 108/131/136 107/130/135 
f 127/157/158 125/158/156 109/132/137 108/131/136 
f 125/158/156 128/159/159 110/133/138 109/132/137 
f 128/159/159 125/160/156 111/134/139 110/133/138 
f 112/135/140 111/134/139 125/160/156 
s 4
f 129/1/160 130/4/161 131/3/162 132/2/163 
f 133/5/164 134/8/165 135/7/166 136/6/167 
s 1
f 130/9/168 129/12/169 133/11/170 136/10/171 
f 132/13/172 137/16/173 138/15/173 134/14/174 
s 4
f 139/17/175 131/3/162 140/19/176 141/18/177 
f 136/6/167 135/7/166 142/21/178 143/20/179 
s 1
f 130/9/168 136/10/171 143/23/180 144/22/181 
f 145/24/182 146/27/183 147/26/184 148/25/182 
s 4
f 137/28/185 132/2/163 131/3/162 139/17/175 
f 135/7/166 134/8/165 138/30/186 149/29/187 
s 1
f 129/12/169 132/13/172 134/14/174 133/11/170 
s 4
f 139/17/175 150/32/188 151/31/189 137/28/185 
s 2
f 138/15/190 137/16/190 151/34/191 152/33/192 
s 4
f 149/29/187 138/30/186 152/36/193 153/35/194 
f 154/37/195 149/29/187 153/35/194 155/38/196 
f 146/39/197 145/42/198 156/41/199 157/40/200 
s 2
f 156/43/201 145/24/202 148/25/202 158/44/203 
s 4
f 158/45/204 148/48/205 147/47/206 159/46/207 
s 1
f 159/49/208 147/26/184 146/27/183 157/50/209 
s 4
f 156/41/199 151/31/189 150/32/188 157/40/200 
s 2
f 152/33/192 151/34/191 156/43/201 158/44/203 
s 4
f 153/35/194 152/36/193 158/45/204 159/46/207 
f 150/32/188 160/52/210 161/51/211 157/40/200 
f 34/53/53 141/18/177 140/19/176 35/54/54 
f 143/20/179 142/21/178 37/56/56 36/55/55 
s 1
f 38/57/57 144/22/181 143/23/180 36/58/58 
f 157/50/209 161/60/212 162/59/213 159/49/208 
s 4
f 130/4/161 144/61/214 140/19/176 131/3/162 
f 149/29/187 154/37/195 142/21/178 135/7/166 
f 139/17/175 141/18/177 160/52/210 150/32/188 
f 154/37/195 155/38/196 41/63/63 40/62/62 
f 42/64/64 161/51/211 160/52/210 43/65/65 
f 162/66/215 155/38/196 153/35/194 159/46/207 
s 1
f 163/67/216 164/70/217 165/69/218 166/68/219 
s 2
f 166/68/220 165/69/221 167/72/222 168/71/223 
s 1
f 166/68/219 169/74/224 170/73/225 163/67/216 
s 2
f 168/71/223 171/75/226 169/74/227 166/68/220 
s 1
f 55/78/80 54/77/80 53/76/80 
f 55/78/228 53/76/228 170/73/225 
f 169/74/224 55/78/81 170/73/225 
s 2
f 171/75/226 56/79/83 55/78/82 169/74/227 
s 4
f 165/69/229 164/70/229 167/72/229 
s 1
f 172/80/230 173/83/231 174/82/232 175/81/233 
f 176/84/234 172/80/230 175/81/233 177/85/235 
f 178/86/236 176/84/234 177/85/235 179/87/237 
f 180/88/238 178/86/236 179/87/237 181/89/239 
f 182/90/240 180/88/238 181/89/239 183/91/241 
f 184/92/242 182/90/240 183/91/241 185/93/243 
f 184/92/242 185/93/243 72/95/100 71/94/99 
f 186/96/244 187/97/245 173/83/231 172/80/230 
f 188/98/246 186/96/244 172/80/230 176/84/234 
f 189/99/247 188/98/246 176/84/234 178/86/236 
f 190/100/248 189/99/247 178/86/236 180/88/238 
f 191/101/249 190/100/248 180/88/238 182/90/240 
f 192/102/250 191/101/249 182/90/240 184/92/242 
f 192/102/250 184/92/242 71/94/99 80/103/108 
f 193/104/251 194/105/252 187/97/245 186/96/244 
f 195/106/253 193/104/251 186/96/244 188/98/246 
f 196/107/254 195/106/253 188/98/246 189/99/247 
f 197/108/255 196/107/254 189/99/247 190/100/248 
f 198/109/256 197/108/255 190/100/248 191/101/249 
f 199/110/257 198/109/256 191/101/249 192/102/250 
f 199/110/257 192/102/250 80/103/108 88/111/116 
f 200/112/258 201/113/259 194/105/252 193/104/251 
f 202/114/260 200/112/258 193/104/251 195/106/253 
f 203/115/261 202/114/260 195/106/253 196/107/254 
f 204/116/262 203/115/261 196/107/254 197/108/255 
f 205/117/263 204/116/262 197/108/255 198/109/256 
f 206/118/264 205/117/263 198/109/256 199/110/257 
f 206/118/264 199/110/257 88/111/116 96/119/124 
f 207/120/265 208/121/266 201/113/259 200/112/258 
f 209/122/267 207/120/265 200/112/258 202/114/260 
f 210/123/268 209/122/267 202/114/260 203/115/261 
f 211/124/269 210/123/268 203/115/261 204/116/262 
f 212/125/270 211/124/269 204/116/262 205/117/263 
f 213/126/271 212/125/270 205/117/263 206/118/264 
f 213/126/271 206/118/264 96/119/124 104/127/132 
f 214/128/272 215/129/273 208/121/266 207/120/265 
f 216/130/274 214/128/272 207/120/265 209/122/267 
f 217/131/275 216/130/274 209/122/267 210/123/268 
f 218/132/276 217/131/275 210/123/268 211/124/269 
f 219/133/277 218/132/276 211/124/269 212/125/270 
f 220/134/278 219/133/277 212/125/270 213/126/271 
f 220/134/278 213/126/271 104/127/132 112/135/140 
f 42/136/141 113/137/142 162/59/213 161/60/212 
s 4
f 144/61/214 38/138/143 35/54/54 140/19/176 
f 40/62/62 37/56/56 142/21/178 154/37/195 
f 141/18/177 34/53/53 43/65/65 160/52/210 
f 113/139/144 41/63/63 155/38/196 162/66/215 
s 1
f 114/140/145 115/141/146 174/82/232 
f 115/141/146 116/142/279 175/81/233 174/82/232 
f 116/142/279 115/143/146 177/85/235 175/81/233 
f 115/143/146 117/144/280 179/87/237 177/85/235 
f 117/144/280 115/145/146 181/89/239 179/87/237 
f 115/145/146 118/146/281 183/91/241 181/89/239 
f 118/146/281 115/147/146 185/93/243 183/91/241 
f 115/147/146 72/95/100 185/93/243 
f 173/83/231 119/148/150 114/140/145 174/82/232 
f 187/97/245 120/149/151 119/148/150 173/83/231 
f 194/105/252 121/150/152 120/149/151 187/97/245 
f 201/113/259 122/151/153 121/150/152 194/105/252 
f 208/121/266 123/152/154 122/151/153 201/113/259 
f 215/129/273 124/153/155 123/152/154 208/121/266 
f 125/154/156 124/153/155 215/129/273 
f 125/154/156 215/129/273 214/128/272 126/155/282 
f 126/155/282 214/128/272 216/130/274 125/156/156 
f 125/156/156 216/130/274 217/131/275 127/157/283 
f 127/157/283 217/131/275 218/132/276 125/158/156 
f 125/158/156 218/132/276 219/133/277 128/159/284 
f 128/159/284 219/133/277 220/134/278 125/160/156 
f 112/135/140 125/160/156 220/134/278 
# 207 polygons - 14 triangles

