# 3ds Max Wavefront OBJ Exporter v0.97b - (c)2007 guruware
# File Created: 29.08.2016 09:00:34

newmtl 08___Default
	Ns 10.0000
	Ni 1.5000
	d 1.0000
	Tr 0.0000
	Tf 1.0000 1.0000 1.0000 
	illum 2
	Ka 0.0000 0.0000 0.0000
	Kd 0.5882 0.5882 0.5882
	Ks 0.0000 0.0000 0.0000
	Ke 0.0000 0.0000 0.0000
	map_Ka D:\Orithia DW\OFFICIAL\Assets\Textures\TaintedArmorTexture01.psd
	map_Kd D:\Orithia DW\OFFICIAL\Assets\Textures\TaintedArmorTexture01.psd

newmtl wire_166202240
	Ns 32
	d 1
	Tr 0
	Tf 1 1 1
	illum 2
	Ka 0.0000 0.0000 0.0000
	Kd 0.6510 0.7922 0.9412
	Ks 0.3500 0.3500 0.3500

newmtl wire_224198087
	Ns 32
	d 1
	Tr 0
	Tf 1 1 1
	illum 2
	Ka 0.0000 0.0000 0.0000
	Kd 0.8784 0.7765 0.3412
	Ks 0.3500 0.3500 0.3500

newmtl wire_008110134
	Ns 32
	d 1
	Tr 0
	Tf 1 1 1
	illum 2
	Ka 0.0000 0.0000 0.0000
	Kd 0.0314 0.4314 0.5255
	Ks 0.3500 0.3500 0.3500

newmtl wire_028028177
	Ns 32
	d 1
	Tr 0
	Tf 1 1 1
	illum 2
	Ka 0.0000 0.0000 0.0000
	Kd 0.1098 0.1098 0.6941
	Ks 0.3500 0.3500 0.3500

newmtl wire_134006006
	Ns 32
	d 1
	Tr 0
	Tf 1 1 1
	illum 2
	Ka 0.0000 0.0000 0.0000
	Kd 0.5255 0.0235 0.0235
	Ks 0.3500 0.3500 0.3500

newmtl wire_108008136
	Ns 32
	d 1
	Tr 0
	Tf 1 1 1
	illum 2
	Ka 0.0000 0.0000 0.0000
	Kd 0.4235 0.0314 0.5333
	Ks 0.3500 0.3500 0.3500

newmtl wire_006134006
	Ns 32
	d 1
	Tr 0
	Tf 1 1 1
	illum 2
	Ka 0.0000 0.0000 0.0000
	Kd 0.0235 0.5255 0.0235
	Ks 0.3500 0.3500 0.3500

newmtl wire_113134006
	Ns 32
	d 1
	Tr 0
	Tf 1 1 1
	illum 2
	Ka 0.0000 0.0000 0.0000
	Kd 0.4431 0.5255 0.0235
	Ks 0.3500 0.3500 0.3500

newmtl wire_006135006
	Ns 32
	d 1
	Tr 0
	Tf 1 1 1
	illum 2
	Ka 0.0000 0.0000 0.0000
	Kd 0.0235 0.5294 0.0235
	Ks 0.3500 0.3500 0.3500

newmtl 03___Default
	Ns 10.0000
	Ni 1.5000
	d 1.0000
	Tr 0.0000
	Tf 1.0000 1.0000 1.0000 
	illum 2
	Ka 0.0000 0.0000 0.0000
	Kd 0.5882 0.5882 0.5882
	Ks 0.0000 0.0000 0.0000
	Ke 0.0000 0.0000 0.0000
	map_Ka Map__0_Checker.tga
	map_Kd Map__0_Checker.tga

newmtl 07___Default
	Ns 10.0000
	Ni 1.5000
	d 1.0000
	Tr 0.0000
	Tf 1.0000 1.0000 1.0000 
	illum 2
	Ka 0.0000 0.0000 0.0000
	Kd 0.0314 0.0314 0.0314
	Ks 0.0000 0.0000 0.0000
	Ke 0.0000 0.0000 0.0000
