# 3ds Max Wavefront OBJ Exporter v0.97b - (c)2007 guruware
# File Created: 18.08.2016 13:25:59

mtllib Taint_Leg_Knee.mtl

#
# object Plane01
#

v  -12.6858 17.2524 -0.4618
v  -6.3221 17.2524 3.0708
v  -6.3221 27.6168 3.0708
v  -12.6858 27.6168 -0.4618
v  0.0415 17.2524 -0.4618
v  0.0415 27.6168 -0.4618
# 6 vertices

vn -0.4853 -0.0000 0.8743
vn 0.0000 -0.0000 1.0000
vn 0.4853 -0.0000 0.8743
# 3 vertex normals

vt 0.0000 0.0000 0.0000
vt 0.5000 0.0000 0.0000
vt 0.5000 0.5000 0.0000
vt 0.0000 0.5000 0.0000
# 4 texture coords

g Plane01
usemtl wire_027177027
s 1
f 1/1/1 2/2/2 3/3/2 
f 3/3/2 4/4/1 1/1/1 
f 5/1/3 6/4/3 3/3/2 
f 3/3/2 2/2/2 5/1/3 
# 4 faces

